3.5000000000000000e+00 | -6.3319264861573473e+01 | -5.9819264861573473e+01
3.5233115730151949e+00 | -6.3342578258535958e+01 | -5.9819266685520766e+01
3.5467397874468949e+00 | -6.3366008309033148e+01 | -5.9819268521586253e+01
3.5702849821401816e+00 | -6.3389555351974508e+01 | -5.9819270369834328e+01
3.5939474984048836e+00 | -6.3413219728735001e+01 | -5.9819272230330114e+01
3.6177276800331715e+00 | -6.3437001783172533e+01 | -5.9819274103139364e+01
3.6416258733173201e+00 | -6.3460901861645738e+01 | -5.9819275988328414e+01
3.6656424270676555e+00 | -6.3484920313031985e+01 | -5.9819277885964333e+01
3.6897776926307193e+00 | -6.3509057488745555e+01 | -5.9819279796114834e+01
3.7140320239076106e+00 | -6.3533313742755944e+01 | -5.9819281718848330e+01
3.7384057773725377e+00 | -6.3557689431606363e+01 | -5.9819283654233828e+01
3.7628993120915717e+00 | -6.3582184914432688e+01 | -5.9819285602341118e+01
3.7875129897415927e+00 | -6.3606800552982158e+01 | -5.9819287563240565e+01
3.8122471746294684e+00 | -6.3631536711632862e+01 | -5.9819289537003392e+01
3.8371022337114136e+00 | -6.3656393757412800e+01 | -5.9819291523701388e+01
3.8620785366125867e+00 | -6.3681372060019754e+01 | -5.9819293523407168e+01
3.8871764556468831e+00 | -6.3706471991840871e+01 | -5.9819295536193991e+01
3.9123963658369614e+00 | -6.3731693927972906e+01 | -5.9819297562135944e+01
3.9377386449344778e+00 | -6.3757038246242175e+01 | -5.9819299601307698e+01
3.9632036734405487e+00 | -6.3782505327225515e+01 | -5.9819301653784969e+01
3.9887918346264559e+00 | -6.3808095554270267e+01 | -5.9819303719643813e+01
4.0145035145545496e+00 | -6.3833809313515943e+01 | -5.9819305798961395e+01
4.0403391020994084e+00 | -6.3859646993914922e+01 | -5.9819307891815512e+01
4.0662989889692263e+00 | -6.3885608987253974e+01 | -5.9819309998284751e+01
4.0923835697274420e+00 | -6.3911695688175982e+01 | -5.9819312118448536e+01
4.1185932418146010e+00 | -6.3937907494201696e+01 | -5.9819314252387095e+01
4.1449284055704814e+00 | -6.3964244805751854e+01 | -5.9819316400181371e+01
4.1713894642564391e+00 | -6.3990708026169699e+01 | -5.9819318561913263e+01
4.1979768240780349e+00 | -6.4017297561743490e+01 | -5.9819320737665457e+01
4.2246908942078898e+00 | -6.4044013821729337e+01 | -5.9819322927521448e+01
4.2515320868088242e+00 | -6.4070857218374272e+01 | -5.9819325131565449e+01
4.2785008170572336e+00 | -6.4097828166940189e+01 | -5.9819327349882954e+01
4.3055975031667479e+00 | -6.4124927085726583e+01 | -5.9819329582559831e+01
4.3328225664121458e+00 | -6.4152154396095284e+01 | -5.9819331829683136e+01
4.3601764311535591e+00 | -6.4179510522494255e+01 | -5.9819334091340693e+01
4.3876595248609291e+00 | -6.4206995892482212e+01 | -5.9819336367621283e+01
4.4152722781387608e+00 | -6.4234610936753342e+01 | -5.9819338658614583e+01
4.4430151247511596e+00 | -6.4262356089162310e+01 | -5.9819340964411154e+01
4.4708885016471420e+00 | -6.4290231786749686e+01 | -5.9819343285102548e+01
4.4988928489862552e+00 | -6.4318238469767593e+01 | -5.9819345620781334e+01
4.5270286101644750e+00 | -6.4346376581705272e+01 | -5.9819347971540793e+01
4.5552962318404155e+00 | -6.4374646569315800e+01 | -5.9819350337475385e+01
4.5836961639618377e+00 | -6.4403048882642381e+01 | -5.9819352718680541e+01
4.6122288597924648e+00 | -6.4431583975044987e+01 | -5.9819355115252520e+01
4.6408947759391141e+00 | -6.4460252303227932e+01 | -5.9819357527288815e+01
4.6696943723791353e+00 | -6.4489054327266913e+01 | -5.9819359954887780e+01
4.6986281124881799e+00 | -6.4517990510636935e+01 | -5.9819362398148755e+01
4.7276964630682858e+00 | -6.4547061320240630e+01 | -5.9819364857172346e+01
4.7568998943763123e+00 | -6.4576267226436229e+01 | -5.9819367332059919e+01
4.7862388801526787e+00 | -6.4605608703066849e+01 | -5.9819369822914169e+01
4.8157138976504630e+00 | -6.4635086227489154e+01 | -5.9819372329838693e+01
4.8453254276648456e+00 | -6.4664700280603100e+01 | -5.9819374852938253e+01
4.8750739545628878e+00 | -6.4694451346881607e+01 | -5.9819377392318721e+01
4.9049599663136769e+00 | -6.4724339914400787e+01 | -5.9819379948087111e+01
4.9349839545188265e+00 | -6.4754366474870352e+01 | -5.9819382520351525e+01
4.9651464144433373e+00 | -6.4784531523664555e+01 | -5.9819385109221216e+01
4.9954478450468338e+00 | -6.4814835559853492e+01 | -5.9819387714806659e+01
5.0258887490151665e+00 | -6.4845279086234584e+01 | -5.9819390337219417e+01
5.0564696327924050e+00 | -6.4875862609364759e+01 | -5.9819392976572352e+01
5.0871910066132138e+00 | -6.4906586639592632e+01 | -5.9819395632979422e+01
5.1180533845356084e+00 | -6.4937451691091539e+01 | -5.9819398306555932e+01
5.1490572844741314e+00 | -6.4968458281892509e+01 | -5.9819400997418377e+01
5.1802032282334016e+00 | -6.4999606933917818e+01 | -5.9819403705684415e+01
5.2114917415421074e+00 | -6.5030898173015316e+01 | -5.9819406431473212e+01
5.2429233540873756e+00 | -6.5062332528992258e+01 | -5.9819409174904884e+01
5.2744985995495979e+00 | -6.5093910535650778e+01 | -5.9819411936101183e+01
5.3062180156376648e+00 | -6.5125632730822673e+01 | -5.9819414715185005e+01
5.3380821441246322e+00 | -6.5157499656405278e+01 | -5.9819417512280644e+01
5.3700915308838395e+00 | -6.5189511858397566e+01 | -5.9819420327513726e+01
5.4022467259254690e+00 | -6.5221669886936667e+01 | -5.9819423161011201e+01
5.4345482834335570e+00 | -6.5253974296335187e+01 | -5.9819426012901630e+01
5.4669967618034718e+00 | -6.5286425645118172e+01 | -5.9819428883314700e+01
5.4995927236798448e+00 | -6.5319024496061573e+01 | -5.9819431772381726e+01
5.5323367359950026e+00 | -6.5351771416230463e+01 | -5.9819434680235460e+01
5.5652293700078577e+00 | -6.5384666977017929e+01 | -5.9819437607010073e+01
5.5982712013432891e+00 | -6.5417711754184481e+01 | -5.9819440552841193e+01
5.6314628100320441e+00 | -6.5450906327898124e+01 | -5.9819443517866077e+01
5.6648047805511226e+00 | -6.5484251282774551e+01 | -5.9819446502223428e+01
5.6982977018646697e+00 | -6.5517747207918063e+01 | -5.9819449506053395e+01
5.7319421674654150e+00 | -6.5551394696963499e+01 | -5.9819452529498086e+01
5.7657387754166116e+00 | -6.5585194348117369e+01 | -5.9819455572700761e+01
5.7996881283945418e+00 | -6.5619146764201062e+01 | -5.9819458635806519e+01
5.8337908337315323e+00 | -6.5653252552693630e+01 | -5.9819461718962096e+01
5.8680475034595601e+00 | -6.5687512325775430e+01 | -5.9819464822315872e+01
5.9024587543543987e+00 | -6.5721926700372236e+01 | -5.9819467946017838e+01
5.9370252079803372e+00 | -6.5756496298200247e+01 | -5.9819471090219906e+01
5.9717474907354982e+00 | -6.5791221745810930e+01 | -5.9819474255075434e+01
6.0066262338977277e+00 | -6.5826103674637480e+01 | -5.9819477440739753e+01
6.0416620736710831e+00 | -6.5861142721041006e+01 | -5.9819480647369922e+01
6.0768556512329504e+00 | -6.5896339526357792e+01 | -5.9819483875124845e+01
6.1122076127817584e+00 | -6.5931694736946838e+01 | -5.9819487124165079e+01
6.1477186095853495e+00 | -6.5967209004238583e+01 | -5.9819490394653236e+01
6.1833892980299474e+00 | -6.6002882984783824e+01 | -5.9819493686753873e+01
6.2192203396698353e+00 | -6.6038717340303108e+01 | -5.9819497000633277e+01
6.2552124012776273e+00 | -6.6074712737737300e+01 | -5.9819500336459676e+01
6.2913661548952664e+00 | -6.6110869849298780e+01 | -5.9819503694403515e+01
6.3276822778856818e+00 | -6.6147189352522588e+01 | -5.9819507074636903e+01
6.3641614529851331e+00 | -6.6183671930319434e+01 | -5.9819510477334305e+01
6.4008043683562832e+00 | -6.6220318271028233e+01 | -5.9819513902671950e+01
6.4376117176419703e+00 | -6.6257129068470292e+01 | -5.9819517350828320e+01
6.4745842000197111e+00 | -6.6294105022003848e+01 | -5.9819520821984135e+01
6.5117225202569529e+00 | -6.6331246836578870e+01 | -5.9819524316321917e+01
6.5490273887670822e+00 | -6.6368555222793717e+01 | -5.9819527834026637e+01
6.5864995216661839e+00 | -6.6406030896951734e+01 | -5.9819531375285550e+01
6.6241396408306068e+00 | -6.6443674581118472e+01 | -5.9819534940287866e+01
6.6619484739552970e+00 | -6.6481487003180632e+01 | -5.9819538529225333e+01
6.6999267546129557e+00 | -6.6519468896904897e+01 | -5.9819542142291944e+01
6.7380752223140039e+00 | -6.6557621001997902e+01 | -5.9819545779683899e+01
6.7763946225674001e+00 | -6.6595944064167512e+01 | -5.9819549441600110e+01
6.8148857069422970e+00 | -6.6634438835183886e+01 | -5.9819553128241587e+01
6.8535492331305568e+00 | -6.6673106072942474e+01 | -5.9819556839811916e+01
6.8923859650101615e+00 | -6.6711946541527396e+01 | -5.9819560576517233e+01
6.9313966727094991e+00 | -6.6750961011275720e+01 | -5.9819564338566224e+01
6.9705821326725808e+00 | -6.6790150258842601e+01 | -5.9819568126170019e+01
7.0099431277251689e+00 | -6.6829515067267749e+01 | -5.9819571939542584e+01
7.0494804471418604e+00 | -6.6869056226042105e+01 | -5.9819575778900244e+01
7.0891948867141146e+00 | -6.6908774531176434e+01 | -5.9819579644462323e+01
7.1290872488192782e+00 | -6.6948670785269940e+01 | -5.9819583536450665e+01
7.1691583424905847e+00 | -6.6988745797580691e+01 | -5.9819587455090108e+01
7.2094089834881778e+00 | -6.7029000384096236e+01 | -5.9819591400608061e+01
7.2498399943711700e+00 | -6.7069435367606161e+01 | -5.9819595373234989e+01
7.2904522045707303e+00 | -6.7110051577775010e+01 | -5.9819599373204284e+01
7.3312464504642625e+00 | -6.7150849851216392e+01 | -5.9819603400752129e+01
7.3722235754506675e+00 | -6.7191831031568626e+01 | -5.9819607456117957e+01
7.4133844300266851e+00 | -6.7232995969570837e+01 | -5.9819611539544155e+01
7.4547298718644184e+00 | -6.7274345523140497e+01 | -5.9819615651276081e+01
7.4962607658899447e+00 | -6.7315880557452431e+01 | -5.9819619791562488e+01
7.5379779843631489e+00 | -6.7357601945018445e+01 | -5.9819623960655292e+01
7.5798824069587232e+00 | -6.7399510565768296e+01 | -5.9819628158809572e+01
7.6219749208483716e+00 | -6.7441607307132102e+01 | -5.9819632386283729e+01
7.6642564207842820e+00 | -6.7483893064123961e+01 | -5.9819636643339678e+01
7.7067278091838229e+00 | -6.7526368739426402e+01 | -5.9819640930242578e+01
7.7493899962155606e+00 | -6.7569035243476776e+01 | -5.9819645247261214e+01
7.7922438998865555e+00 | -6.7611893494554479e+01 | -5.9819649594667922e+01
7.8352904461309958e+00 | -6.7654944418869519e+01 | -5.9819653972738521e+01
7.8785305689002056e+00 | -6.7698188950652806e+01 | -5.9819658381752603e+01
7.9219652102540232e+00 | -6.7741628032247462e+01 | -5.9819662821993440e+01
7.9655953204536001e+00 | -6.7785262614201656e+01 | -5.9819667293748054e+01
8.0094218580556316e+00 | -6.7829093655363010e+01 | -5.9819671797307379e+01
8.0534457900080341e+00 | -6.7873122122974380e+01 | -5.9819676332966345e+01
8.0976680917471775e+00 | -6.7917348992770840e+01 | -5.9819680901023659e+01
8.1420897472965752e+00 | -6.7961775249078883e+01 | -5.9819685501782310e+01
8.1867117493671540e+00 | -6.8006401884916343e+01 | -5.9819690135549187e+01
8.2315350994591245e+00 | -6.8051229902094732e+01 | -5.9819694802635610e+01
8.2765608079654456e+00 | -6.8096260311322325e+01 | -5.9819699503356880e+01
8.3217898942769359e+00 | -6.8141494132309901e+01 | -5.9819704238032969e+01
8.3672233868890888e+00 | -6.8186932393877186e+01 | -5.9819709006988099e+01
8.4128623235105824e+00 | -6.8232576134061418e+01 | -5.9819713810550837e+01
8.4587077511735274e+00 | -6.8278426400228170e+01 | -5.9819718649054643e+01
8.5047607263455411e+00 | -6.8324484249182888e+01 | -5.9819723522837350e+01
8.5510223150435873e+00 | -6.8370750747285342e+01 | -5.9819728432241753e+01
8.5974935929497285e+00 | -6.8417226970565110e+01 | -5.9819733377615378e+01
8.6441756455287244e+00 | -6.8463914004839296e+01 | -5.9819738359310570e+01
8.6910695681475900e+00 | -6.8510812945832399e+01 | -5.9819743377684809e+01
8.7381764661971353e+00 | -6.8557924899297774e+01 | -5.9819748433100642e+01
8.7854974552154879e+00 | -6.8605250981141253e+01 | -5.9819753525925762e+01
8.8330336610137152e+00 | -6.8652792317546755e+01 | -5.9819758656533040e+01
8.8807862198034968e+00 | -6.8700550045104492e+01 | -5.9819763825300996e+01
8.9287562783269880e+00 | -6.8748525310940295e+01 | -5.9819769032613308e+01
8.9769449939888304e+00 | -6.8796719272848236e+01 | -5.9819774278859406e+01
9.0253535349904261e+00 | -6.8845133099424856e+01 | -5.9819779564434427e+01
9.0739830804664852e+00 | -6.8893767970205573e+01 | -5.9819784889739090e+01
9.1228348206238881e+00 | -6.8942625075804116e+01 | -5.9819790255180230e+01
9.1719099568829492e+00 | -6.8991705618053459e+01 | -5.9819795661170510e+01
9.2212097020210955e+00 | -6.9041010810149956e+01 | -5.9819801108128857e+01
9.2707352803190481e+00 | -6.9090541876799392e+01 | -5.9819806596480348e+01
9.3204879277095181e+00 | -6.9140300054365895e+01 | -5.9819812126656373e+01
9.3704688919285104e+00 | -6.9190286591023295e+01 | -5.9819817699094784e+01
9.4206794326692584e+00 | -6.9240502746909357e+01 | -5.9819823314240097e+01
9.4711208217388858e+00 | -6.9290949794282412e+01 | -5.9819828972543526e+01
9.5217943432178327e+00 | -6.9341629017680887e+01 | -5.9819834674463053e+01
9.5727012936220888e+00 | -6.9392541714085908e+01 | -5.9819840420463819e+01
9.6238429820683304e+00 | -6.9443689193086158e+01 | -5.9819846211017826e+01
9.6752207304420228e+00 | -6.9495072777046559e+01 | -5.9819852046604538e+01
9.7268358735685254e+00 | -6.9546693801279289e+01 | -5.9819857927710764e+01
9.7786897593872872e+00 | -6.9598553614218133e+01 | -5.9819863854830842e+01
9.8307837491291927e+00 | -6.9650653577595918e+01 | -5.9819869828466722e+01
9.8831192174971783e+00 | -6.9702995066625547e+01 | -5.9819875849128366e+01
9.9356975528501081e+00 | -6.9755579470183591e+01 | -5.9819881917333483e+01
9.9885201573900204e+00 | -6.9808408190998335e+01 | -5.9819888033608315e+01
1.0041588447352876e+01 | -6.9861482645840084e+01 | -5.9819894198487205e+01
1.0094903853202823e+01 | -6.9914804265715631e+01 | -5.9819900412512808e+01
1.0148467819830056e+01 | -6.9968374496066929e+01 | -5.9819906676236869e+01
1.0202281806752397e+01 | -7.0022194796972116e+01 | -5.9819912990219720e+01
1.0256347288320685e+01 | -7.0076266643351389e+01 | -5.9819919355030706e+01
1.0310665753927985e+01 | -7.0130591525176470e+01 | -5.9819925771248485e+01
1.0365238708222837e+01 | -7.0185170947683858e+01 | -5.9819932239461025e+01
1.0420067671326509e+01 | -7.0240006431592576e+01 | -5.9819938760266069e+01
1.0475154179054442e+01 | -7.0295099513325368e+01 | -5.9819945334270926e+01
1.0530499783141945e+01 | -7.0350451745235048e+01 | -5.9819951962093100e+01
1.0586106051474246e+01 | -7.0406064695834317e+01 | -5.9819958644360071e+01
1.0641974568321007e+01 | -7.0461939950031081e+01 | -5.9819965381710077e+01
1.0698106934575444e+01 | -7.0518079109367207e+01 | -5.9819972174791765e+01
1.0754504767998068e+01 | -7.0574483792262882e+01 | -5.9819979024264811e+01
1.0811169703465309e+01 | -7.0631155634265156e+01 | -5.9819985930799845e+01
1.0868103393222970e+01 | -7.0688096288301978e+01 | -5.9819992895079011e+01
1.0925307507144794e+01 | -7.0745307424940847e+01 | -5.9819999917796054e+01
1.0982783732996161e+01 | -7.0802790732652468e+01 | -5.9820006999656307e+01
1.1040533776703080e+01 | -7.0860547918080641e+01 | -5.9820014141377563e+01
1.1098559362626590e+01 | -7.0918580706316448e+01 | -5.9820021343689859e+01
1.1156862233842761e+01 | -7.0976890841178488e+01 | -5.9820028607335729e+01
1.1215444152428365e+01 | -7.1035480085499245e+01 | -5.9820035933070884e+01
1.1274306899752398e+01 | -7.1094350221416533e+01 | -5.9820043321664137e+01
1.1333452276773597e+01 | -7.1153503050671418e+01 | -5.9820050773897819e+01
1.1392882104344130e+01 | -7.1212940394912209e+01 | -5.9820058290568078e+01
1.1452598223519541e+01 | -7.1272664096004689e+01 | -5.9820065872485145e+01
1.1512602495875200e+01 | -7.1332676016349055e+01 | -5.9820073520473855e+01
1.1572896803829407e+01 | -7.1392978039203015e+01 | -5.9820081235373607e+01
1.1633483050973247e+01 | -7.1453572069012353e+01 | -5.9820089018039106e+01
1.1694363162407495e+01 | -7.1514460031747916e+01 | -5.9820096869340418e+01
1.1755539085086648e+01 | -7.1575643875250165e+01 | -5.9820104790163519e+01
1.1817012788170345e+01 | -7.1637125569580760e+01 | -5.9820112781410415e+01
1.1878786263382340e+01 | -7.1698907107382283e+01 | -5.9820120843999945e+01
1.1940861525377217e+01 | -7.1760990504244859e+01 | -5.9820128978867643e+01
1.2003240612115107e+01 | -7.1823377799081584e+01 | -5.9820137186966477e+01
1.2065925585244546e+01 | -7.1886071054511859e+01 | -5.9820145469267317e+01
1.2128918530493761e+01 | -7.1949072357252859e+01 | -5.9820153826759096e+01
1.2192221558070608e+01 | -7.2012383818519936e+01 | -5.9820162260449329e+01
1.2255836803071318e+01 | -7.2076007574436062e+01 | -5.9820170771364744e+01
1.2319766425898427e+01 | -7.2139945786449999e+01 | -5.9820179360551570e+01
1.2384012612688021e+01 | -7.2204200641763961e+01 | -5.9820188029075936e+01
1.2448577575746615e+01 | -7.2268774353771249e+01 | -5.9820196778024638e+01
1.2513463553997964e+01 | -7.2333669162503327e+01 | -5.9820205608505361e+01
1.2578672813439967e+01 | -7.2398887335087295e+01 | -5.9820214521647330e+01
1.2644207647612108e+01 | -7.2464431166213956e+01 | -5.9820223518601850e+01
1.2710070378073596e+01 | -7.2530302978616390e+01 | -5.9820232600542795e+01
1.2776263354892599e+01 | -7.2596505123559822e+01 | -5.9820241768667223e+01
1.2842788957146812e+01 | -7.2663039981342763e+01 | -5.9820251024195954e+01
1.2909649593435772e+01 | -7.2729909961809895e+01 | -5.9820260368374122e+01
1.2976847702405188e+01 | -7.2797117504877150e+01 | -5.9820269802471962e+01
1.3044385753283667e+01 | -7.2864665081068736e+01 | -5.9820279327785073e+01
1.3112266246432178e+01 | -7.2932555192067738e+01 | -5.9820288945635561e+01
1.3180491713906690e+01 | -7.3000790371278953e+01 | -5.9820298657372263e+01
1.3249064720034239e+01 | -7.3069373184406118e+01 | -5.9820308464371877e+01
1.3317987862002997e+01 | -7.3138306230042318e+01 | -5.9820318368039324e+01
1.3387263770466600e+01 | -7.3207592140275253e+01 | -5.9820328369808649e+01
1.3456895110163266e+01 | -7.3277233581307044e+01 | -5.9820338471143778e+01
1.3526884580550114e+01 | -7.3347233254089488e+01 | -5.9820348673539371e+01
1.3597234916453132e+01 | -7.3417593894974630e+01 | -5.9820358978521497e+01
1.3667948888733294e+01 | -7.3488318276381904e+01 | -5.9820369387648611e+01
1.3739029304969282e+01 | -7.3559409207481607e+01 | -5.9820379902512329e+01
1.3810479010157383e+01 | -7.3630869534895623e+01 | -5.9820390524738244e+01
1.3882300887429029e+01 | -7.3702702143416133e+01 | -5.9820401255987107e+01
1.3954497858786574e+01 | -7.3774909956742405e+01 | -5.9820412097955831e+01
1.4027072885857852e+01 | -7.3847495938235710e+01 | -5.9820423052377862e+01
1.4100028970670095e+01 | -7.3920463091695225e+01 | -5.9820434121025130e+01
1.4173369156443908e+01 | -7.3993814462152073e+01 | -5.9820445305708162e+01
1.4247096528407756e+01 | -7.4067553136685731e+01 | -5.9820456608277979e+01
1.4321214214633857e+01 | -7.4141682245260469e+01 | -5.9820468030626614e+01
1.4395725386895922e+01 | -7.4216204961584793e+01 | -5.9820479574688875e+01
1.4470633261549679e+01 | -7.4291124503992478e+01 | -5.9820491242442799e+01
1.4545941100436709e+01 | -7.4366444136348349e+01 | -5.9820503035911642e+01
1.4621652211812517e+01 | -7.4442167168977250e+01 | -5.9820514957164733e+01
1.4697769951299531e+01 | -7.4518296959618368e+01 | -5.9820527008318834e+01
1.4774297722865903e+01 | -7.4594836914405846e+01 | -5.9820539191539943e+01
1.4851238979830956e+01 | -7.4671790488874876e+01 | -5.9820551509043923e+01
1.4928597225898137e+01 | -7.4749161188997022e+01 | -5.9820563963098884e+01
1.5006376016216432e+01 | -7.4826952572242405e+01 | -5.9820576556025969e+01
1.5084578958471228e+01 | -7.4905168248672624e+01 | -5.9820589290201397e+01
1.5163209714005507e+01 | -7.4983811882063591e+01 | -5.9820602168058087e+01
1.5242271998972544e+01 | -7.5062887191059616e+01 | -5.9820615192087075e+01
1.5321769585521109e+01 | -7.5142397950360532e+01 | -5.9820628364839422e+01
1.5401706303014276e+01 | -7.5222347991942527e+01 | -5.9820641688928248e+01
1.5482086039283125e+01 | -7.5302741206313385e+01 | -5.9820655167030260e+01
1.5562912741916371e+01 | -7.5383581543804425e+01 | -5.9820668801888054e+01
1.5644190419587339e+01 | -7.5464873015899272e+01 | -5.9820682596311933e+01
1.5725923143419514e+01 | -7.5546619696601567e+01 | -5.9820696553182053e+01
1.5808115048392072e+01 | -7.5628825723842922e+01 | -5.9820710675450854e+01
1.5890770334786804e+01 | -7.5711495300931645e+01 | -5.9820724966144837e+01
1.5973893269677905e+01 | -7.5794632698045376e+01 | -5.9820739428367474e+01
1.6057488188466237e+01 | -7.5878242253767553e+01 | -5.9820754065301315e+01
1.6141559496459593e+01 | -7.5962328376670143e+01 | -5.9820768880210551e+01
1.6226111670500678e+01 | -7.6046895546944668e+01 | -5.9820783876443990e+01
1.6311149260644658e+01 | -7.6131948318081896e+01 | -5.9820799057437242e+01
1.6396676891887878e+01 | -7.6217491318603919e+01 | -5.9820814426716041e+01
1.6482699265949950e+01 | -7.6303529253848964e+01 | -5.9820829987899018e+01
1.6569221163110921e+01 | -7.6390066907811743e+01 | -5.9820845744700819e+01
1.6656247444105812e+01 | -7.6477109145041041e+01 | -5.9820861700935225e+01
1.6743783052078591e+01 | -7.6564660912597205e+01 | -5.9820877860518614e+01
1.6831833014597862e+01 | -7.6652727242071165e+01 | -5.9820894227473303e+01
1.6920402445736649e+01 | -7.6741313251667975e+01 | -5.9820910805931327e+01
1.7009496548218735e+01 | -7.6830424148356698e+01 | -5.9820927600137964e+01
1.7099120615634199e+01 | -7.6920065230089847e+01 | -5.9820944614455648e+01
1.7189280034726774e+01 | -7.7010241888095109e+01 | -5.9820961853368331e+01
1.7279980287755762e+01 | -7.7100959609241173e+01 | -5.9820979321485410e+01
1.7371226954935864e+01 | -7.7192223978481920e+01 | -5.9820997023546056e+01
1.7463025716957397e+01 | -7.7284040681381782e+01 | -5.9821014964424386e+01
1.7555382357590723e+01 | -7.7376415506724214e+01 | -5.9821033149133491e+01
1.7648302766377853e+01 | -7.7469354349208686e+01 | -5.9821051582830833e+01
1.7741792941415042e+01 | -7.7562863212238554e+01 | -5.9821070270823512e+01
1.7835858992229905e+01 | -7.7656948210803336e+01 | -5.9821089218573434e+01
1.7930507142757058e+01 | -7.7751615574460175e+01 | -5.9821108431703117e+01
1.8025743734416316e+01 | -7.7846871650418009e+01 | -5.9821127916001693e+01
1.8121575229297697e+01 | -7.7942722906728335e+01 | -5.9821147677430638e+01
1.8218008213457757e+01 | -7.8039175935588688e+01 | -5.9821167722130930e+01
1.8315049400331958e+01 | -7.8136237456761052e+01 | -5.9821188056429094e+01
1.8412705634267901e+01 | -7.8233914321112493e+01 | -5.9821208686844592e+01
1.8510983894184783e+01 | -7.8332213514281676e+01 | -5.9821229620096894e+01
1.8609891297364264e+01 | -7.8431142160477805e+01 | -5.9821250863113541e+01
1.8709435103378681e+01 | -7.8530707526416435e+01 | -5.9821272423037755e+01
1.8809622718162466e+01 | -7.8630917025399498e+01 | -5.9821294307237032e+01
1.8910461698233114e+01 | -7.8731778221544957e+01 | -5.9821316523311843e+01
1.9011959755068240e+01 | -7.8833298834173249e+01 | -5.9821339079105009e+01
1.9114124759645833e+01 | -7.8935486742356673e+01 | -5.9821361982710840e+01
1.9216964747154876e+01 | -7.9038349989640722e+01 | -5.9821385242485846e+01
1.9320487921884144e+01 | -7.9141896788942901e+01 | -5.9821408867058757e+01
1.9424702662297189e+01 | -7.9246135527638899e+01 | -5.9821432865341706e+01
1.9529617526302196e+01 | -7.9351074772844200e+01 | -5.9821457246542003e+01
1.9635241256725458e+01 | -7.9456723276899552e+01 | -5.9821482020174095e+01
1.9741582786998293e+01 | -7.9563089983070611e+01 | -5.9821507196072318e+01
1.9848651247067004e+01 | -7.9670184031471166e+01 | -5.9821532784404162e+01
1.9956455969536741e+01 | -7.9778014765221187e+01 | -5.9821558795684446e+01
2.0065006496060178e+01 | -7.9886591736850463e+01 | -5.9821585240790284e+01
2.0174312583982790e+01 | -7.9995924714958633e+01 | -5.9821612130975844e+01
2.0284384213257141e+01 | -8.0106023691146490e+01 | -5.9821639477889349e+01
2.0395231593639203e+01 | -8.0216898887228837e+01 | -5.9821667293589634e+01
2.0506865172180525e+01 | -8.0328560762744900e+01 | -5.9821695590564374e+01
2.0619295641030863e+01 | -8.0441020022779782e+01 | -5.9821724381748922e+01
2.0732533945566743e+01 | -8.0554287626112995e+01 | -5.9821753680546252e+01
2.0846591292862190e+01 | -8.0668374793709660e+01 | -5.9821783500847474e+01
2.0961479160518955e+01 | -8.0783293017573470e+01 | -5.9821813857054515e+01
2.1077209305874561e+01 | -8.0899054069977453e+01 | -5.9821844764102892e+01
2.1193793775607467e+01 | -8.1015670013093896e+01 | -5.9821876237486428e+01
2.1311244915759968e+01 | -8.1133153209042646e+01 | -5.9821908293282675e+01
2.1429575382200515e+01 | -8.1251516330380980e+01 | -5.9821940948180469e+01
2.1548798151548489e+01 | -8.1370772371057143e+01 | -5.9821974219508654e+01
2.1668926532586131e+01 | -8.1490934657852151e+01 | -5.9822008125266024e+01
2.1789974178183400e+01 | -8.1612016862337214e+01 | -5.9822042684153814e+01
2.1911955097763347e+01 | -8.1734033013372482e+01 | -5.9822077915609135e+01
2.2034883670337614e+01 | -8.1856997510178644e+01 | -5.9822113839841030e+01
2.2158774658142967e+01 | -8.1980925136010896e+01 | -5.9822150477867929e+01
2.2283643220912076e+01 | -8.2105831072469883e+01 | -5.9822187851557807e+01
2.2409504930813945e+01 | -8.2231730914484842e+01 | -5.9822225983670897e+01
2.2536375788101449e+01 | -8.2358640686005387e+01 | -5.9822264897903935e+01
2.2664272237506104e+01 | -8.2486576856443961e+01 | -5.9822304618937856e+01
2.2793211185422532e+01 | -8.2615556357911132e+01 | -5.9822345172488596e+01
2.2923210017928454e+01 | -8.2745596603288249e+01 | -5.9822386585359794e+01
2.3054286619688277e+01 | -8.2876715505188230e+01 | -5.9822428885499953e+01
2.3186459393792504e+01 | -8.3008931495854867e+01 | -5.9822472102062363e+01
2.3319747282587990e+01 | -8.3142263548057414e+01 | -5.9822516265469424e+01
2.3454169789558406e+01 | -8.3276731197038387e+01 | -5.9822561407479981e+01
2.3589747002317960e+01 | -8.3412354563580081e+01 | -5.9822607561262117e+01
2.3726499616786139e+01 | -8.3549154378255722e+01 | -5.9822654761469579e+01
2.3864448962615896e+01 | -8.3687152006939783e+01 | -5.9822703044323887e+01
2.4003617029952828e+01 | -8.3826369477654183e+01 | -5.9822752447701355e+01
2.4144026497608621e+01 | -8.3966829508834465e+01 | -5.9822803011225844e+01
2.4285700762737818e+01 | -8.4108555539106078e+01 | -5.9822854776368260e+01
2.4428663972113931e+01 | -8.4251571758665563e+01 | -5.9822907786551632e+01
2.4572941055107478e+01 | -8.4395903142372006e+01 | -5.9822962087264528e+01
2.4718557758476717e+01 | -8.4541575484657912e+01 | -5.9823017726181192e+01
2.4865540683089698e+01 | -8.4688615436380417e+01 | -5.9823074753290719e+01
2.5013917322705979e+01 | -8.4837050543740617e+01 | -5.9823133221034638e+01
2.5163716104955363e+01 | -8.4986909289410377e+01 | -5.9823193184455015e+01
2.5314966434662530e+01 | -8.5138221136014536e+01 | -5.9823254701352006e+01
2.5467698739677537e+01 | -8.5291016572131269e+01 | -5.9823317832453732e+01
2.5621944519385295e+01 | -8.5445327160983169e+01 | -5.9823382641597874e+01
2.5777736396080556e+01 | -8.5601185592007525e+01 | -5.9823449195926969e+01
2.5935108169410654e+01 | -8.5758625735508645e+01 | -5.9823517566097991e+01
2.6094094874104162e+01 | -8.5917682700612019e+01 | -5.9823587826507861e+01
2.6254732841222307e+01 | -8.6078392896757975e+01 | -5.9823660055535669e+01
2.6417059763189329e+01 | -8.6240794098993334e+01 | -5.9823734335804005e+01
2.6581114762879992e+01 | -8.6404925517340359e+01 | -5.9823810754460368e+01
2.6746938467066094e+01 | -8.6570827870546495e+01 | -5.9823889403480401e+01
2.6914573084550021e+01 | -8.6738543464545472e+01 | -5.9823970379995451e+01
2.7084062489342028e+01 | -8.6908116275988434e+01 | -5.9824053786646402e+01
2.7255452309269678e+01 | -8.7079592041235927e+01 | -5.9824139731966248e+01
2.7428790020442538e+01 | -8.7253018351236349e+01 | -5.9824228330793815e+01
2.7604125048033591e+01 | -8.7428444752756008e+01 | -5.9824319704722413e+01
2.7781508873881233e+01 | -8.7605922856467046e+01 | -5.9824413982585810e+01
2.7960995151462516e+01 | -8.7785506452448217e+01 | -5.9824511300985705e+01
2.8142639828839926e+01 | -8.7967251633704706e+01 | -5.9824611804864780e+01
2.8326501280241374e+01 | -8.8151216928371241e+01 | -5.9824715648129867e+01
2.8512640446996784e+01 | -8.8337463441326619e+01 | -5.9824822994329836e+01
2.8701120988624858e+01 | -8.8526055006019632e+01 | -5.9824934017394774e+01
2.8892009444942580e+01 | -8.8717058347384409e+01 | -5.9825048902441829e+01
2.9085375410156800e+01 | -8.8910543256812218e+01 | -5.9825167846655418e+01
2.9281291719994964e+01 | -8.9106582780243883e+01 | -5.9825291060248915e+01
2.9479834653040520e+01 | -8.9305253420558543e+01 | -5.9825418767518023e+01
2.9681084147560206e+01 | -8.9506635355554508e+01 | -5.9825551207994302e+01
2.9885124035246022e+01 | -8.9710812672957104e+01 | -5.9825688637711082e+01
3.0092042293447371e+01 | -8.9917873624040936e+01 | -5.9825831330593566e+01
3.0301931317639912e+01 | -9.0127910897628354e+01 | -5.9825979579988442e+01
3.0514888216070119e+01 | -9.0341021916417944e+01 | -5.9826133700347825e+01
3.0731015128731187e+01 | -9.0557309157817770e+01 | -5.9826294029086583e+01
3.0950419573070491e+01 | -9.0776880501703999e+01 | -5.9826460928633509e+01
3.1173214819105247e+01 | -9.0999849607805260e+01 | -5.9826634788700012e+01
3.1399520296935833e+01 | -9.1226336325728084e+01 | -5.9826816028792251e+01
3.1629462040001005e+01 | -9.1456467140999550e+01 | -5.9827005100998548e+01
3.1863173167822481e+01 | -9.1690375660908089e+01 | -5.9827202493085608e+01
3.2100794412445445e+01 | -9.1928203144389911e+01 | -5.9827408731944466e+01
3.2342474693304922e+01 | -9.2170099080735781e+01 | -5.9827624387430859e+01
3.2588371745846587e+01 | -9.2416221822501015e+01 | -5.9827850076654428e+01
3.2838652809916056e+01 | -9.2666739278691495e+01 | -5.9828086468775439e+01
3.3093495384717293e+01 | -9.2921829675097797e+01 | -5.9828334290380504e+01
3.3353088058046197e+01 | -9.3181682389564259e+01 | -5.9828594331518062e+01
3.3617631418549195e+01 | -9.3446498871037079e+01 | -5.9828867452487884e+01
3.3887339060962873e+01 | -9.3716493652457302e+01 | -5.9829154591494429e+01
3.4162438695688898e+01 | -9.3991895468980715e+01 | -5.9829456773291817e+01
3.4443173375681781e+01 | -9.4272948494651828e+01 | -5.9829775118970048e+01
3.4729802855519139e+01 | -9.4559913712577981e+01 | -5.9830110857058841e+01
3.5022605099731990e+01 | -9.4853070435886579e+01 | -5.9830465336154589e+01
3.5321877960060448e+01 | -9.5152717999375895e+01 | -5.9830840039315447e+01
3.5627941044338534e+01 | -9.5459177644850499e+01 | -5.9831236600511964e+01
3.5941137803292420e+01 | -9.5772794626770633e+01 | -5.9831656823478212e+01
3.6261837865768683e+01 | -9.6093940569137430e+01 | -5.9832102703368747e+01
3.6590439657927526e+01 | -9.6423016109640912e+01 | -5.9832576451713386e+01
3.6927373347907860e+01 | -9.6760453873161822e+01 | -5.9833080525253962e+01
3.7273104164603176e+01 | -9.7106721823973174e+01 | -5.9833617659369999e+01
3.7628136147734693e+01 | -9.7462327054682319e+01 | -5.9834190906947626e+01
3.7993016396694571e+01 | -9.7827820080423990e+01 | -5.9834803683729419e+01
3.8368339898058608e+01 | -9.8203799719469629e+01 | -5.9835459821411021e+01
3.8754755026745258e+01 | -9.8590918656779451e+01 | -5.9836163630034193e+01
3.9152969834171266e+01 | -9.8989889805757571e+01 | -5.9836919971586305e+01
3.9563759259248812e+01 | -9.9401493606415301e+01 | -5.9837734347166489e+01
3.9987973425742545e+01 | -9.9826586426398904e+01 | -5.9838613000656359e+01
4.0426547223723276e+01 | -1.0026611026628845e+02 | -5.9839563042565175e+01
4.0880511415392419e+01 | -1.0072110401406042e+02 | -5.9840592598667996e+01
4.1351005558728581e+01 | -1.0119271654800365e+02 | -5.9841710989275064e+01
4.1839293109279524e+01 | -1.0168222205585005e+02 | -5.9842928946570524e+01
4.2346779145043399e+01 | -1.0219103802459102e+02 | -5.9844258879547624e+01
4.2875031267169774e+01 | -1.0272074646601132e+02 | -5.9845715198841546e+01
4.3425804367466426e+01 | -1.0327311908492311e+02 | -5.9847314717456683e+01
4.4001070132349746e+01 | -1.0385014728070212e+02 | -5.9849077148352372e+01
4.4603052385540650e+01 | -1.0445407811214933e+02 | -5.9851025726608682e+01
4.5234269677356252e+01 | -1.0508745767049417e+02 | -5.9853187993137922e+01
4.5897586933280841e+01 | -1.0575318372301575e+02 | -5.9855596789734911e+01
4.6596278515994911e+01 | -1.0645457004919960e+02 | -5.9858291533204692e+01
4.7334105786713884e+01 | -1.0719542564846937e+02 | -5.9861319861755483e+01
4.8115413251141852e+01 | -1.0798015303450708e+02 | -5.9864739783365231e+01
4.8945248756658245e+01 | -1.0881387126564195e+02 | -5.9868622508983705e+01
4.9829515140661350e+01 | -1.0970257137258466e+02 | -5.9873056231923307e+01
5.0775163473071558e+01 | -1.1065331470566277e+02 | -5.9878151232591208e+01
5.1790441986117266e+01 | -1.1167448885370212e+02 | -5.9884046867584850e+01
5.2885220565364250e+01 | -1.1277614184745482e+02 | -5.9890921282090574e+01
5.4071419286587485e+01 | -1.1397042441585100e+02 | -5.9899005129263514e+01
5.5363582559731725e+01 | -1.1527218386291806e+02 | -5.9908601303186330e+01
5.6779660729487674e+01 | -1.1669977462662713e+02 | -5.9920113897139458e+01
5.8342093214734291e+01 | -1.1827618487977486e+02 | -5.9934091665040569e+01
6.0079339852174442e+01 | -1.2003063477118619e+02 | -5.9951294919011744e+01
6.2028095480639905e+01 | -1.2200089697528330e+02 | -5.9972801494643392e+01
6.4236576403503832e+01 | -1.2423675659790713e+02 | -6.0000180194403299e+01
6.6769544806185081e+01 | -1.2680533045101882e+02 | -6.0035785644833737e+01
6.9716261037467632e+01 | -1.2979954331615312e+02 | -6.0083282278685488e+01
7.3203595207208835e+01 | -1.3335222096431076e+02 | -6.0148625757101925e+01
7.7418731192830137e+01 | -1.3766075276534337e+02 | -6.0242021572513238e+01
8.2650905900257754e+01 | -1.4303305751065977e+02 | -6.0382151610402019e+01
8.9374107272933855e+01 | -1.4998035082491194e+02 | -6.0606243551978082e+01
9.8427518553905884e+01 | -1.5942490398456408e+02 | -6.0997385430658198e+01
1.1146364064192325e+02 | -1.7323678362930704e+02 | -6.1773142987383793e+01
1.3228529819262832e+02 | -1.9594607524054604e+02 | -6.3660777047917719e+01
1.7212754699303093e+02 | -2.4252143733997670e+02 | -7.0393890346945767e+01
2.8180921183074855e+02 | -4.1715353428348146e+02 | -1.3534432245273291e+02
3.6387279887526029e+02 | -7.0867196238050008e+02 | -3.4479916350523979e+02
1.9573622120265617e+02 | -2.7272985285262575e+02 | -7.6993631649969586e+01
1.4312819062448997e+02 | -2.0806276814118715e+02 | -6.4934577516697175e+01
1.1823553789386725e+02 | -1.8044521124720302e+02 | -6.2209673353335774e+01
1.0350770950583565e+02 | -1.6470290290181546e+02 | -6.1195193395979814e+01
9.3671694522181951e+01 | -1.5438366100413342e+02 | -6.0711966481951464e+01
8.6589944774817340e+01 | -1.4703513038472605e+02 | -6.0445185609908705e+01
8.1224735768781869e+01 | -1.4150739489459687e+02 | -6.0282659125815002e+01
7.7008137351393486e+01 | -1.3718455813715050e+02 | -6.0176420785757017e+01
7.3601585970483058e+01 | -1.3370479039853112e+02 | -6.0103204428048059e+01
7.0789883974329996e+01 | -1.3084050862133708e+02 | -6.0050624647007083e+01
6.8429246494597010e+01 | -1.2844084572732183e+02 | -6.0011599232724819e+01
6.6419685388285615e+01 | -1.2640152707762780e+02 | -5.9981841689342190e+01
6.4689354734400581e+01 | -1.2464798955593652e+02 | -5.9958634821535938e+01
6.3185200733315789e+01 | -1.2312538952090692e+02 | -5.9940188787591133e+01
6.1867129650307803e+01 | -1.2179241542781999e+02 | -5.9925285777512187e+01
6.0704234650654868e+01 | -1.2061730855824050e+02 | -5.9913073907585627e+01
5.9672277154942392e+01 | -1.1957521995964450e+02 | -5.9902942804702107e+01
5.8751959516202021e+01 | -1.1864640539256361e+02 | -5.9894445876361587e+01
5.7927712068211882e+01 | -1.1781496234000329e+02 | -5.9887250271791409e+01
5.7186823444205885e+01 | -1.1706792725405853e+02 | -5.9881103809852647e+01
5.6518805374767908e+01 | -1.1639461797942255e+02 | -5.9875812604654641e+01
5.5914921006351264e+01 | -1.1578614661625714e+02 | -5.9871225609905878e+01
5.5367829393293690e+01 | -1.1523505313420407e+02 | -5.9867223740910376e+01
5.4871313918989266e+01 | -1.1473502600691224e+02 | -5.9863712087922970e+01
5.4420072278330345e+01 | -1.1428068653450897e+02 | -5.9860614256178629e+01
5.4009552242809193e+01 | -1.1386742043661476e+02 | -5.9857868193805572e+01
5.3635821906572588e+01 | -1.1349124498341429e+02 | -5.9855423076841703e+01
5.3295466204405102e+01 | -1.1314870316036961e+02 | -5.9853236955964505e+01
5.2985503661872414e+01 | -1.1283677862113515e+02 | -5.9851274959262739e+01
5.2703318880892198e+01 | -1.1255282678669452e+02 | -5.9849507905802326e+01
5.2446607375903305e+01 | -1.1229451860197771e+02 | -5.9847911226074409e+01
5.2213330186701022e+01 | -1.1205979430077356e+02 | -5.9846464114072539e+01
5.2001676292012540e+01 | -1.1184682514790128e+02 | -5.9845148855888745e+01
5.1810031293494490e+01 | -1.1165398158753734e+02 | -5.9843950294042855e+01
5.1636951175116394e+01 | -1.1147980657217946e+02 | -5.9842855397063062e+01
5.1481140197463439e+01 | -1.1132299310879007e+02 | -5.9841852911326633e+01
5.1341432181430569e+01 | -1.1118236525910029e+02 | -5.9840933077669725e+01
5.1216774586254786e+01 | -1.1105686198560485e+02 | -5.9840087399350068e+01
5.1106214903861904e+01 | -1.1094552335485761e+02 | -5.9839308450995709e+01
5.1008888983173073e+01 | -1.1084747870364055e+02 | -5.9838589720467475e+01
5.0924010970300429e+01 | -1.1076193644761055e+02 | -5.9837925477310122e+01
5.0850864607926844e+01 | -1.1068817527072862e+02 | -5.9837310662801777e+01
5.0788795682962615e+01 | -1.1062553648060400e+02 | -5.9836740797641383e+01
5.0737205448345463e+01 | -1.1057341735245711e+02 | -5.9836211904111650e+01
5.0695544874538598e+01 | -1.1053126531471975e+02 | -5.9835720440181149e+01
5.0663309610373517e+01 | -1.1049857285386857e+02 | -5.9835263243495049e+01
5.0640035552531401e+01 | -1.1047487303612705e+02 | -5.9834837483595649e+01
5.0625294939054520e+01 | -1.1045973556007229e+02 | -5.9834440621017770e+01
5.0618692895528454e+01 | -1.1045276326768001e+02 | -5.9834070372151558e+01
5.0619864373526624e+01 | -1.1045358905248753e+02 | -5.9833724678960905e+01
5.0628471429997646e+01 | -1.1046187311280339e+02 | -5.9833401682805743e+01
5.0644200803849714e+01 | -1.1047730050559437e+02 | -5.9833099701744658e+01
5.0666761752319005e+01 | -1.1049957896311702e+02 | -5.9832817210798012e+01
5.0695884115027212e+01 | -1.1052843693976631e+02 | -5.9832552824739096e+01
5.0731316578110750e+01 | -1.1056362186116010e+02 | -5.9832305283049351e+01
5.0772825114589040e+01 | -1.1060489855132086e+02 | -5.9832073436731818e+01
5.0820191580348840e+01 | -1.1065204781707422e+02 | -5.9831856236725379e+01
5.0873212447849774e+01 | -1.1070486517155190e+02 | -5.9831652723702128e+01
5.0931697661984849e+01 | -1.1076315968104520e+02 | -5.9831462019060346e+01
5.0995469604520906e+01 | -1.1082675292147864e+02 | -5.9831283316957737e+01
5.1064362155252084e+01 | -1.1089547803250035e+02 | -5.9831115877248266e+01
5.1138219839469052e+01 | -1.1096917885867747e+02 | -5.9830959019208414e+01
5.1216897052613390e+01 | -1.1104770916856617e+02 | -5.9830812115952781e+01
5.1300257354082369e+01 | -1.1113093194353655e+02 | -5.9830674589454183e+01
5.1388172823098088e+01 | -1.1121871872919277e+02 | -5.9830545906094684e+01
5.1480523470379580e+01 | -1.1131094904306372e+02 | -5.9830425572684135e+01
5.1577196700074637e+01 | -1.1140750983296419e+02 | -5.9830313132889557e+01
5.1678086817033666e+01 | -1.1150829498106344e+02 | -5.9830208164029777e+01
5.1783094575055962e+01 | -1.1161320484924703e+02 | -5.9830110274191064e+01
5.1892126762218396e+01 | -1.1172214586184792e+02 | -5.9830019099629524e+01
5.2005095819817257e+01 | -1.1183503012224419e+02 | -5.9829934302426935e+01
5.2121919491825153e+01 | -1.1195177506019731e+02 | -5.9829855568372153e+01
5.2242520502090528e+01 | -1.1207230310713526e+02 | -5.9829782605044727e+01
5.2366826256796202e+01 | -1.1219654139687373e+02 | -5.9829715140077525e+01
5.2494768569947595e+01 | -1.1232442148952870e+02 | -5.9829652919581108e+01
5.2626283409887989e+01 | -1.1245587911659966e+02 | -5.9829595706711672e+01
5.2761310665037541e+01 | -1.1259085394540585e+02 | -5.9829543280368313e+01
5.2899793927232139e+01 | -1.1272928936123887e+02 | -5.9829495434006731e+01
5.3041680291195497e+01 | -1.1287113226575285e+02 | -5.9829451974557351e+01
5.3186920168820585e+01 | -1.1301633289025798e+02 | -5.9829412721437400e+01
5.3335467117062258e+01 | -1.1316484462271119e+02 | -5.9829377505648928e+01
5.3487277678355724e+01 | -1.1331662384730761e+02 | -5.9829346168951886e+01
5.3642311232577505e+01 | -1.1347162979568630e+02 | -5.9829318563108792e+01
5.3800529859655555e+01 | -1.1362982440884610e+02 | -5.9829294549190550e+01
5.3961898212017530e+01 | -1.1379117220895833e+02 | -5.9829273996940799e+01
5.4126383396139133e+01 | -1.1395564018032995e+02 | -5.9829256784190818e+01
5.4293954862520678e+01 | -1.1412319765884344e+02 | -5.9829242796322760e+01
5.4464584303480123e+01 | -1.1429381622925534e+02 | -5.9829231925775218e+01
5.4638245558204048e+01 | -1.1446746962979222e+02 | -5.9829224071588172e+01
5.4814914524547483e+01 | -1.1464413366353081e+02 | -5.9829219138983326e+01
5.4994569077116864e+01 | -1.1482378611609423e+02 | -5.9829217038977362e+01
5.5177188991211594e+01 | -1.1500640667923716e+02 | -5.9829217688025565e+01
5.5362755872234757e+01 | -1.1519197687992651e+02 | -5.9829221007691757e+01
5.5551253090217642e+01 | -1.1538048001456174e+02 | -5.9829226924344098e+01
5.5742665719132447e+01 | -1.1557190108800613e+02 | -5.9829235368873682e+01
5.5936980480694672e+01 | -1.1576622675712916e+02 | -5.9829246276434489e+01
5.6134185692382772e+01 | -1.1596344527858490e+02 | -5.9829259586202127e+01
5.6334271219424195e+01 | -1.1616354646057626e+02 | -5.9829275241152061e+01
5.6537228430519320e+01 | -1.1636652161837193e+02 | -5.9829293187852613e+01
5.6743050157092988e+01 | -1.1657236353336762e+02 | -5.9829313376274634e+01
5.6951730655881676e+01 | -1.1678106641549633e+02 | -5.9829335759614651e+01
5.7163265574680210e+01 | -1.1699262586881103e+02 | -5.9829360294130822e+01
5.7377651921087143e+01 | -1.1720703886007995e+02 | -5.9829386938992805e+01
5.7594888034101757e+01 | -1.1742430369024201e+02 | -5.9829415656140256e+01
5.7814973558438076e+01 | -1.1764441996859226e+02 | -5.9829446410154183e+01
5.8037909421433959e+01 | -1.1786738858957095e+02 | -5.9829479168136992e+01
5.8263697812443148e+01 | -1.1809321171204471e+02 | -5.9829513899601558e+01
5.8492342164609411e+01 | -1.1832189274097924e+02 | -5.9829550576369826e+01
5.8723847138931120e+01 | -1.1855343631140924e+02 | -5.9829589172478123e+01
5.8958218610533173e+01 | -1.1878784827462435e+02 | -5.9829629664091179e+01
5.9195463657072033e+01 | -1.1902513568649438e+02 | -5.9829672029422348e+01
5.9435590549207575e+01 | -1.1926530679786869e+02 | -5.9829716248661114e+01
5.9678608743081888e+01 | -1.1950837104698827e+02 | -5.9829762303906385e+01
5.9924528874753733e+01 | -1.1975433905386002e+02 | -5.9829810179106289e+01
6.0173362756542495e+01 | -1.2000322261654581e+02 | -5.9829859860003317e+01
6.0425123375242819e+01 | -1.2025503470932777e+02 | -5.9829911334084954e+01
6.0679824892176981e+01 | -1.2050978948271644e+02 | -5.9829964590539461e+01
6.0937482645057223e+01 | -1.2076750226527382e+02 | -5.9830019620216596e+01
6.1198113151637116e+01 | -1.2102818956723000e+02 | -5.9830076415592885e+01
6.1461734115135073e+01 | -1.2129186908587768e+02 | -5.9830134970742606e+01
6.1728364431419784e+01 | -1.2155855971273095e+02 | -5.9830195281311170e+01
6.1998024197951466e+01 | -1.2182828154244615e+02 | -5.9830257344494683e+01
6.2270734724478473e+01 | -1.2210105588350194e+02 | -5.9830321159023470e+01
6.2546518545494017e+01 | -1.2237690527064227e+02 | -5.9830386725148252e+01
6.2825399434462042e+01 | -1.2265585347909469e+02 | -5.9830454044632646e+01
6.3107402419827281e+01 | -1.2293792554057501e+02 | -5.9830523120747728e+01
6.3392553802828900e+01 | -1.2322314776110089e+02 | -5.9830593958271990e+01
6.3680881177142290e+01 | -1.2351154774063674e+02 | -5.9830666563494454e+01
6.3972413450379051e+01 | -1.2380315439460142e+02 | -5.9830740944222370e+01
6.4267180867480519e+01 | -1.2409799797727315e+02 | -5.9830817109792633e+01
6.4565215036044975e+01 | -1.2439611010713216e+02 | -5.9830895071087184e+01
6.4866548953635089e+01 | -1.2469752379418770e+02 | -5.9830974840552614e+01
6.5171217037117287e+01 | -1.2500227346934199e+02 | -5.9831056432224699e+01
6.5479255154090936e+01 | -1.2531039501584725e+02 | -5.9831139861756313e+01
6.5790700656472225e+01 | -1.2562192580292209e+02 | -5.9831225146449867e+01
6.6105592416302073e+01 | -1.2593690472159746e+02 | -5.9831312305295384e+01
6.6423970863857335e+01 | -1.2625537222286910e+02 | -5.9831401359011764e+01
6.6745878028148780e+01 | -1.2657737035824333e+02 | -5.9831492330094548e+01
6.7071357579899313e+01 | -1.2690294282276710e+02 | -5.9831585242867789e+01
6.7400454877102618e+01 | -1.2723213500064442e+02 | -5.9831680123541801e+01
6.7733217013271684e+01 | -1.2756499401354780e+02 | -5.9831777000276119e+01
6.8069692868495650e+01 | -1.2790156877174515e+02 | -5.9831875903249497e+01
6.8409933163433550e+01 | -1.2824191002816804e+02 | -5.9831976864734486e+01
6.8753990516383453e+01 | -1.2858607043556427e+02 | -5.9832079919180813e+01
6.9101919503577392e+01 | -1.2893410460688111e+02 | -5.9832185103303715e+01
6.9453776722864490e+01 | -1.2928606917904577e+02 | -5.9832292456181278e+01
6.9809620860957210e+01 | -1.2964202288031615e+02 | -5.9832402019358938e+01
7.0169512764430664e+01 | -1.3000202660139425e+02 | -5.9832513836963585e+01
7.0533515514679081e+01 | -1.3036614347050420e+02 | -5.9832627955825117e+01
7.0901694507050962e+01 | -1.3073443893266051e+02 | -5.9832744425609548e+01
7.1274117534401441e+01 | -1.3110698083336280e+02 | -5.9832863298961357e+01
7.1650854875320178e+01 | -1.3148383950697837e+02 | -5.9832984631658192e+01
7.2031979387313740e+01 | -1.3186508787009021e+02 | -5.9833108482776467e+01
7.2417566605244787e+01 | -1.3225080152011626e+02 | -5.9833234914871468e+01
7.2807694845354362e+01 | -1.3264105883952527e+02 | -5.9833363994170909e+01
7.3202445315221240e+01 | -1.3303594110600505e+02 | -5.9833495790783815e+01
7.3601902230042171e+01 | -1.3343553260896834e+02 | -5.9833630378926173e+01
7.4006152935647634e+01 | -1.3383992077281235e+02 | -5.9833767837164714e+01
7.4415288038705384e+01 | -1.3424919628738579e+02 | -5.9833908248680402e+01
7.4829401544600316e+01 | -1.3466345324615332e+02 | -5.9834051701553008e+01
7.5248591003523586e+01 | -1.3508278929259234e+02 | -5.9834198289068752e+01
7.5672957665349145e+01 | -1.3550730577540332e+02 | -5.9834348110054179e+01
7.6102606643928226e+01 | -1.3593710791316437e+02 | -5.9834501269236142e+01
7.6537647091488040e+01 | -1.3637230496912224e+02 | -5.9834657877634200e+01
7.6978192383882885e+01 | -1.3681301043686744e+02 | -5.9834818052984559e+01
7.7424360317515976e+01 | -1.3725934223771642e+02 | -5.9834981920200448e+01
7.7876273318824417e+01 | -1.3771142293069806e+02 | -5.9835149611873646e+01
7.8334058667304589e+01 | -1.3816937993612322e+02 | -5.9835321268818632e+01
7.8797848733148754e+01 | -1.3863334577381488e+02 | -5.9835497040666127e+01
7.9267781230665662e+01 | -1.3910345831717478e+02 | -5.9835677086509122e+01
7.9743999488773795e+01 | -1.3957986106438267e+02 | -5.9835861575608874e+01
8.0226652739982967e+01 | -1.4006270342814699e+02 | -5.9836050688164022e+01
8.0715896429422457e+01 | -1.4055214104557729e+02 | -5.9836244616154829e+01
8.1211892545632409e+01 | -1.4104833610989698e+02 | -5.9836443564264570e+01
8.1714809975012997e+01 | -1.4155145772590461e+02 | -5.9836647750891615e+01
8.2224824882023711e+01 | -1.4206168229128281e+02 | -5.9836857409259096e+01
8.2742121117448917e+01 | -1.4257919390608481e+02 | -5.9837072788635894e+01
8.3266890657294837e+01 | -1.4310418481297370e+02 | -5.9837294155678862e+01
8.3799334075164978e+01 | -1.4363685587107906e+02 | -5.9837521795914085e+01
8.4339661051277744e+01 | -1.4417741706664808e+02 | -5.9837756015370331e+01
8.4888090921648086e+01 | -1.4472608806403412e+02 | -5.9837997142386030e+01
8.5444853271359051e+01 | -1.4528309880096785e+02 | -5.9838245529608798e+01
8.6010188576308195e+01 | -1.4584869013252219e+02 | -5.9838501556213998e+01
8.6584348898333587e+01 | -1.4642311452870109e+02 | -5.9838765630367504e+01
8.7167598639216408e+01 | -1.4700663683118427e+02 | -5.9839038191967859e+01
8.7760215359731347e+01 | -1.4759953507543230e+02 | -5.9839319715700952e+01
8.8362490670686412e+01 | -1.4820210138513792e+02 | -5.9839610714451510e+01
8.8974731203775519e+01 | -1.4881464294689522e+02 | -5.9839911743119700e+01
8.9597259671078262e+01 | -1.4943748307397630e+02 | -5.9840223402898033e+01
9.0230416023204327e+01 | -1.5007096236928032e+02 | -5.9840546346075996e+01
9.0874558717419404e+01 | -1.5071543999886367e+02 | -5.9840881281444268e+01
9.1530066108637754e+01 | -1.5137129508902953e+02 | -5.9841228980391776e+01
9.2197337977958739e+01 | -1.5203892826175331e+02 | -5.9841590283794574e+01
9.2876797215506613e+01 | -1.5271876332532619e+02 | -5.9841966109819580e+01
9.3568891676755342e+01 | -1.5341124913953885e+02 | -5.9842357462783511e+01
9.4274096234351191e+01 | -1.5411686167758833e+02 | -5.9842765443237141e+01
9.4992915050756636e+01 | -1.5483610631022560e+02 | -5.9843191259468966e+01
9.5725884100932433e+01 | -1.5556952034159730e+02 | -5.9843636240664864e+01
9.6473573978855342e+01 | -1.5631767583085832e+02 | -5.9844101852002979e+01
9.7236593027090123e+01 | -1.5708118273910398e+02 | -5.9844589712013857e+01
9.8015590835054141e+01 | -1.5786069244766301e+02 | -5.9845101612608872e+01
9.8811262159261361e+01 | -1.5865690170151217e+02 | -5.9845639542250808e+01
9.9624351327959943e+01 | -1.5947055704081029e+02 | -5.9846205712850349e+01
1.0045565720352377e+02 | -1.6030245979460929e+02 | -5.9846802591085520e+01
1.0130603878913121e+02 | -1.6115347172412933e+02 | -5.9847432934998125e+01
1.0217642158218388e+02 | -1.6202452141909436e+02 | -5.9848099836910478e+01
1.0306780479624041e+02 | -1.6291661157017964e+02 | -5.9848806773939231e+01
1.0398126959679580e+02 | -1.6383082726448416e+02 | -5.9849557667688359e+01
1.0491798852509180e+02 | -1.6476834548016674e+02 | -5.9850356955074943e+01
1.0587923631966100e+02 | -1.6573044599238742e+02 | -5.9851209672726412e+01
1.0686640238925330e+02 | -1.6671852394726227e+02 | -5.9852121558008974e+01
1.0788100524546589e+02 | -1.6773410441599930e+02 | -5.9853099170533412e+01
1.0892470927179828e+02 | -1.6877885931082548e+02 | -5.9854150039027203e+01
1.0999934429195235e+02 | -1.6985462713175593e+02 | -5.9855282839803579e+01
1.1110692850925642e+02 | -1.7096343612409683e+02 | -5.9856507614840410e+01
1.1224969552816512e+02 | -1.7210753156799959e+02 | -5.9857836039834467e+01
1.1343012634739202e+02 | -1.7328940810314131e+02 | -5.9859281755749294e+01
1.1465098744533910e+02 | -1.7451184822697286e+02 | -5.9860860781633761e+01
1.1591537637991398e+02 | -1.7577796841218517e+02 | -5.9862592032271195e+01
1.1722677672132335e+02 | -1.7709127469352160e+02 | -5.9864497972198251e+01
1.1858912466271185e+02 | -1.7845573011140795e+02 | -5.9866605448696092e+01
1.2000689035883602e+02 | -1.7987583712076508e+02 | -5.9868946761929067e+01
1.2148517799804696e+02 | -1.8135673905059048e+02 | -5.9871561052543512e+01
1.2302984992057002e+02 | -1.8290434603952664e+02 | -5.9874496118956628e+01
1.2464768190810196e+02 | -1.8452549273129284e+02 | -5.9877810823190885e+01
1.2634655931312831e+02 | -1.8622813762641812e+02 | -5.9881578313289808e+01
1.2813572731640207e+02 | -1.8802161771105543e+02 | -5.9885890394653359e+01
1.3002611383211001e+02 | -1.8991697737481559e+02 | -5.9890863542705574e+01
1.3203075126522759e+02 | -1.9192739856501203e+02 | -5.9896647299784433e+01
1.3416533482150541e+02 | -1.9406877102094094e+02 | -5.9903436199435532e+01
1.3644897261257574e+02 | -1.9636045962871356e+02 | -5.9911487016137812e+01
1.3890521016126192e+02 | -1.9882635439900707e+02 | -5.9921144237745153e+01
1.4156345564787040e+02 | -2.0149633420483795e+02 | -5.9932878556967552e+01
1.4446100407861607e+02 | -2.0440835064485179e+02 | -5.9947346566235723e+01
1.4764598024505625e+02 | -2.0761146635326648e+02 | -5.9965486108210229e+01
1.5118173378077063e+02 | -2.1117040759986403e+02 | -5.9988673819093407e+01
1.5515360924041082e+02 | -2.1517260507522781e+02 | -6.0018995834816991e+01
1.5967975901005485e+02 | -2.1973949383919737e+02 | -6.0059734829142513e+01
1.6492917025913522e+02 | -2.2504546581692679e+02 | -6.0116295557791574e+01
1.7115331364948952e+02 | -2.3135139799940413e+02 | -6.0198084349914609e+01
1.7874535595672000e+02 | -2.3906800878915718e+02 | -6.0322652832437171e+01
1.8836020785486397e+02 | -2.4888605171992810e+02 | -6.0525843865064132e+01
2.0118483602453963e+02 | -2.6207517684844106e+02 | -6.0890340823901425e+01
2.1964096270047293e+02 | -2.8128425350682568e+02 | -6.1643290806352752e+01
2.4964032219162871e+02 | -3.1324635457951189e+02 | -6.3606032387883175e+01
3.1080929397020600e+02 | -3.8254305217884877e+02 | -7.1733758208642769e+01
5.2473142363062027e+02 | -7.4228607528820112e+02 | -2.1755465165758085e+02
4.6321435619169404e+02 | -6.0471115430680629e+02 | -1.4149679811511226e+02
3.0110780904100432e+02 | -3.7038728318688919e+02 | -6.9279474145884876e+01
2.5048935383352008e+02 | -3.1361953717315089e+02 | -6.3130183339630804e+01
2.2575245709439463e+02 | -2.8723825385334015e+02 | -6.1485796758945526e+01
2.1118591147116814e+02 | -2.7201218842120272e+02 | -6.0826276950034583e+01
2.0175092475640770e+02 | -2.6225066321668839e+02 | -6.0499738460280696e+01
1.9531301094135608e+02 | -2.5562886528554549e+02 | -6.0315854344189404e+01
1.9080488170396177e+02 | -2.5100792307442714e+02 | -6.0203041370465371e+01
1.8763055044397055e+02 | -2.4776013587550915e+02 | -6.0129585431538601e+01
1.8542994516540614e+02 | -2.4550966570372827e+02 | -6.0079720538322135e+01
1.8397235880487040e+02 | -2.4401726918024482e+02 | -6.0044910375374428e+01
1.8310311360793571e+02 | -2.4312333409846471e+02 | -6.0020220490528999e+01
1.8271469540121666e+02 | -2.4271734427423809e+02 | -6.0002648873021428e+01
1.8273011102810563e+02 | -2.4272040523937116e+02 | -5.9990294211265535e+01
1.8309276297211170e+02 | -2.4307467674952380e+02 | -5.9981913777412103e+01
1.8375998268605943e+02 | -2.4373665789299895e+02 | -5.9976675206939518e+01
1.8469870129411589e+02 | -2.4467271148294600e+02 | -5.9974010188830107e+01
1.8588240531232009e+02 | -2.4585592937875347e+02 | -5.9973524066433384e+01
1.8728887911991765e+02 | -2.4726381616904538e+02 | -5.9974937049127732e+01
1.8889843438554061e+02 | -2.4887647792969406e+02 | -5.9978043544153451e+01
1.9069244626196419e+02 | -2.5067512805213210e+02 | -5.9982681790167902e+01
1.9265209640070384e+02 | -2.5264080555319123e+02 | -5.9988709152487388e+01
1.9475728521691366e+02 | -2.5475326564615460e+02 | -5.9995980429240944e+01
1.9698573202632571e+02 | -2.5699006003831028e+02 | -6.0004328011984569e+01
1.9931233626026886e+02 | -2.5932588038326872e+02 | -6.0013544122999861e+01
2.0170892335113342e+02 | -2.6173229012015707e+02 | -6.0023366769023653e+01
2.0414453416221340e+02 | -2.6417800658218829e+02 | -6.0033472419974885e+01
2.0658641787034753e+02 | -2.6662989723237934e+02 | -6.0043479362031803e+01
2.0900183205248891e+02 | -2.6905479759180196e+02 | -6.0052965539313050e+01
2.1136062508859936e+02 | -2.7142212788875867e+02 | -6.0061502800159303e+01
2.1363838450230310e+02 | -2.7370709007595741e+02 | -6.0068705573654313e+01
2.1581972922480725e+02 | -2.7589401616020018e+02 | -6.0074286935392934e+01
2.1790118740652210e+02 | -2.7797929822277075e+02 | -6.0078110816248653e+01
2.1989311897413478e+02 | -2.7997334724821127e+02 | -6.0080228274076489e+01
2.2182034782502066e+02 | -2.8190123753204705e+02 | -6.0080889707026387e+01
2.2372151135017640e+02 | -2.8380204402260205e+02 | -6.0080532672425647e+01
2.2564749513060525e+02 | -2.8572724861845353e+02 | -6.0079753487848279e+01
2.2765957467740191e+02 | -2.8773885139829122e+02 | -6.0079276720889311e+01
2.2982797593639683e+02 | -2.8990791460444791e+02 | -6.0079938668051085e+01
2.3223152559677737e+02 | -2.9231422600005214e+02 | -6.0082700403274771e+01
2.3495899227651415e+02 | -2.9504769872856656e+02 | -6.0088706452052406e+01
2.3811274872038746e+02 | -2.9821216009768273e+02 | -6.0099411377295269e+01
2.4181565532732694e+02 | -3.0193247074659979e+02 | -6.0116815419272854e+01
2.4622277893675857e+02 | -3.0636667446153433e+02 | -6.0143895524775758e+01
2.5154112826472357e+02 | -3.1172655229541209e+02 | -6.0185424030688523e+01
2.5806400932410872e+02 | -3.1831363985059619e+02 | -6.0249630526487465e+01
2.6623455972267448e+02 | -3.2658644203941117e+02 | -6.0351882316736692e+01
2.7677342285047428e+02 | -3.3729720904303338e+02 | -6.0523786192559101e+01
2.9096502159930810e+02 | -3.5180422223053688e+02 | -6.0839200631228778e+01
3.1140280675663382e+02 | -3.7290800308431750e+02 | -6.1505196327683677e+01
3.4440340956869909e+02 | -4.0769865489126948e+02 | -6.3295245322570395e+01
4.1122186042238053e+02 | -4.8238522349387176e+02 | -7.1163363071491233e+01
6.5075612452185123e+02 | -8.9787706648745416e+02 | -2.4712094196560292e+02
5.5262782913283786e+02 | -6.7425203338258609e+02 | -1.2162420424974823e+02
4.1182688769063316e+02 | -4.7995469759026662e+02 | -6.8127809899633462e+01
3.7658607317641128e+02 | -4.4045188197360960e+02 | -6.3865808797198326e+01
3.7364640081271267e+02 | -4.3779735184463135e+02 | -6.4150951031918680e+01
4.0029820173268763e+02 | -4.6998090344645408e+02 | -6.9682701713766448e+01
5.0827636224789251e+02 | -6.4511503816397817e+02 | -1.3683867591608566e+02
5.6318321661900859e+02 | -8.2427747783319001e+02 | -2.6109426121418142e+02
3.9688420511593188e+02 | -4.7005530277411577e+02 | -7.3171097658183896e+01
3.4377342141056397e+02 | -4.0763696129828088e+02 | -6.3863539887716911e+01
3.1765290308894203e+02 | -3.7940800060957287e+02 | -6.1755097520630841e+01
3.0189674717661575e+02 | -3.6287399908246806e+02 | -6.0977251905852313e+01
2.9136678601145115e+02 | -3.5197815514089609e+02 | -6.0611369129444938e+01
2.8391597052880047e+02 | -3.4432845372352961e+02 | -6.0412483194729134e+01
2.7846883950347762e+02 | -3.3876248954783119e+02 | -6.0293650044353569e+01
2.7441773592045911e+02 | -3.3463559219917772e+02 | -6.0217856278718614e+01
2.7138861504464762e+02 | -3.3155582676712908e+02 | -6.0167211722481454e+01
2.6913609230586604e+02 | -3.2926830902088767e+02 | -6.0132216715021627e+01
2.6749117202654310e+02 | -3.2759861956204958e+02 | -6.0107447535506481e+01
2.6633303988405964e+02 | -3.2642266433460003e+02 | -6.0089624450540384e+01
2.6557285997724841e+02 | -3.2564953054001978e+02 | -6.0076670562771369e+01
2.6514399601690354e+02 | -3.2521121726446614e+02 | -6.0067221247562600e+01
2.6499587192541003e+02 | -3.2505622583833252e+02 | -6.0060353912922494e+01
2.6508999333153338e+02 | -3.2514542548174899e+02 | -6.0055432150215609e+01
2.6539730361239390e+02 | -3.2544931597096689e+02 | -6.0052012358572995e+01
2.6589639301531969e+02 | -3.2594617903592530e+02 | -6.0049786020605609e+01
2.6657227148329162e+02 | -3.2662081464482856e+02 | -6.0048543161536941e+01
2.6741552817190416e+02 | -3.2746367710242151e+02 | -6.0048148930517357e+01
2.6842176962787266e+02 | -3.2847029836086210e+02 | -6.0048528732989439e+01
2.6959127309944745e+02 | -3.2964093244437453e+02 | -6.0049659344927079e+01
2.7092882172902563e+02 | -3.3098038639230407e+02 | -6.0051564663278441e+01
2.7244371029459649e+02 | -3.3249802586177492e+02 | -6.0054315567178435e+01
2.7414992729619644e+02 | -3.3420796129583698e+02 | -6.0058033999640543e+01
2.7606653391610257e+02 | -3.3612943589486281e+02 | -6.0062901978760237e+01
2.7821827446861164e+02 | -3.3828745141025064e+02 | -6.0069176941639000e+01
2.8063646772093864e+02 | -3.4071368348273370e+02 | -6.0077215761795060e+01
2.8336024471315284e+02 | -3.4344775587836494e+02 | -6.0087511165212106e+01
2.8643821616471018e+02 | -3.4653896257151553e+02 | -6.0100746406805342e+01
2.8993066843717634e+02 | -3.5004854586661105e+02 | -6.0117877429434714e+01
2.9391239258124483e+02 | -3.5405264960574885e+02 | -6.0140257024504024e+01
2.9847622373354989e+02 | -3.5864604746951414e+02 | -6.0169823735964258e+01
3.0373725452193861e+02 | -3.6394664496877982e+02 | -6.0209390446841212e+01
3.0983736461381227e+02 | -3.7010044829015550e+02 | -6.0263083676343228e+01
3.1694891501199857e+02 | -3.7728591399268737e+02 | -6.0336998980688804e+01
3.2527465472750225e+02 | -3.8571478014760277e+02 | -6.0440125420100514e+01
3.3503714175160269e+02 | -3.9562261142000852e+02 | -6.0585469668405835e+01
3.4644426016291607e+02 | -4.0723511091933028e+02 | -6.0790850756414216e+01
3.5960924483432302e+02 | -4.2068682398765196e+02 | -6.1077579153328941e+01
3.7440831302174786e+02 | -4.3587123624784226e+02 | -6.1462923226094404e+01
3.9032521349976940e+02 | -4.5226706198183535e+02 | -6.1941848482065950e+01
4.0653420060972303e+02 | -4.6900214627712921e+02 | -6.2467945667406184e+01
4.2274328917629987e+02 | -4.8573254421829694e+02 | -6.2989255041997069e+01
4.4143099076900114e+02 | -5.0510701296319434e+02 | -6.3676022194193195e+01
4.7403461166030604e+02 | -5.4024253297158737e+02 | -6.6207921311281325e+01
5.8241371011552701e+02 | -6.8708396775374695e+02 | -1.0467025763821994e+02
6.3444532980296776e+02 | -8.0674526635194240e+02 | -1.7229993654897464e+02
4.6310959659309287e+02 | -5.2983529528783913e+02 | -6.6725698694746256e+01
4.1165912107568727e+02 | -4.7400894729906952e+02 | -6.2349826223382252e+01
3.8488371735145131e+02 | -4.4621328509413178e+02 | -6.1329567742680467e+01
3.6763252410876373e+02 | -4.2853576956211270e+02 | -6.0903245453348973e+01
3.5538843677625937e+02 | -4.1605912922915911e+02 | -6.0670692452899743e+01
3.4626959494386944e+02 | -4.0679611667793472e+02 | -6.0526521734065284e+01
3.3931474023161331e+02 | -3.9974629225619464e+02 | -6.0431552024581322e+01
3.3395921594385089e+02 | -3.9432671536499009e+02 | -6.0367499421139200e+01
3.2983556307038702e+02 | -3.9015994392008611e+02 | -6.0324380849699082e+01
3.2668566807497564e+02 | -3.8698175714561586e+02 | -6.0296089070640221e+01
3.2431840269904183e+02 | -3.8459695400316349e+02 | -6.0278551304121663e+01
3.2258873436008344e+02 | -3.8285761089123906e+02 | -6.0268876531155627e+01
3.2138849131064069e+02 | -3.8165344752922698e+02 | -6.0264956218586292e+01
3.2064440661568869e+02 | -3.8090972513046057e+02 | -6.0265318514771877e+01
3.2032146760430157e+02 | -3.8059062989103569e+02 | -6.0269162286734115e+01
3.2043110011014858e+02 | -3.8070766697815372e+02 | -6.0276566868005148e+01
3.2104548096953823e+02 | -3.8133443930734694e+02 | -6.0288958337808708e+01
3.2232249963959589e+02 | -3.8263260171260288e+02 | -6.0310102073006988e+01
3.2455296600029556e+02 | -3.8490137983753795e+02 | -6.0348413837242390e+01
3.2825937353657474e+02 | -3.8868242903961544e+02 | -6.0423055503040700e+01
3.3442719494910938e+02 | -3.9500986966814884e+02 | -6.0582674719039460e+01
3.4513145028875624e+02 | -4.0610798601641676e+02 | -6.0976535727660519e+01
3.6564448541984154e+02 | -4.2787398150207366e+02 | -6.2229496082232117e+01
4.1462431206235556e+02 | -4.8371476402743053e+02 | -6.9090451965074976e+01
6.0732426770209054e+02 | -9.3268305020160290e+02 | -3.2535878249951236e+02
4.7955164622128041e+02 | -5.7471466719486239e+02 | -9.5163020973581979e+01
3.7863723864082408e+02 | -4.4293458207884117e+02 | -6.4297343438017094e+01
3.4246732067311444e+02 | -4.0385402379541222e+02 | -6.1386703122297774e+01
3.2319368013776500e+02 | -3.8384174185717762e+02 | -6.0648061719412624e+01
3.1083717054836222e+02 | -3.7120602060895430e+02 | -6.0368850060592081e+01
3.0204555277252797e+02 | -3.6228265027039754e+02 | -6.0237097497869570e+01
2.9536349780661726e+02 | -3.5552893073723607e+02 | -6.0165432930618806e+01
2.9004833561231362e+02 | -3.5017078863730239e+02 | -6.0122453024988772e+01
2.8567514386729124e+02 | -3.4576995411453538e+02 | -6.0094810247244141e+01
2.8197869080336056e+02 | -3.4205477335509403e+02 | -6.0076082551733464e+01
2.7878171024631564e+02 | -3.3884457111413070e+02 | -6.0062860867815061e+01
2.7595930703291594e+02 | -3.3601248948642160e+02 | -6.0053182453505656e+01
2.7342012029095736e+02 | -3.3346595953818741e+02 | -6.0045839247230049e+01
2.7109587233522240e+02 | -3.3113592125240535e+02 | -6.0040048917182958e+01
2.6893532886126627e+02 | -3.2897061779491293e+02 | -6.0035288933646655e+01
2.6690062760928112e+02 | -3.2693183588166016e+02 | -6.0031208272379047e+01
2.6496485998024230e+02 | -3.2499243728920050e+02 | -6.0027577308958200e+01
2.6311028005044557e+02 | -3.2313453668619610e+02 | -6.0024256635750532e+01
2.6132680080291993e+02 | -3.2134797599455914e+02 | -6.0021175191639202e+01
2.5961061546864397e+02 | -3.1962892855815215e+02 | -6.0018313089508183e+01
2.5796289324159204e+02 | -3.1797858045004551e+02 | -6.0015687208453471e+01
2.5638856176680463e+02 | -3.1640190076390070e+02 | -6.0013338997096071e+01
2.5489521554296027e+02 | -3.1490654006252595e+02 | -6.0011324519565676e+01
2.5349219072953349e+02 | -3.1350189762037996e+02 | -6.0009706890846473e+01
2.5218983366649059e+02 | -3.1219838479867497e+02 | -6.0008551132184380e+01
2.5099897214694226e+02 | -3.1100689344740044e+02 | -6.0007921300458179e+01
2.4993058187909682e+02 | -3.0993846148909870e+02 | -6.0007879610001879e+01
2.4899562928974802e+02 | -3.0900411650399235e+02 | -6.0008487214244326e+01
2.4820506691205892e+02 | -3.0821487326240305e+02 | -6.0009806350344121e+01
2.4756995847308116e+02 | -3.0758186212999334e+02 | -6.0011903656912182e+01
2.4710171619030103e+02 | -3.0711657082689129e+02 | -6.0014854636590258e+01
2.4681244152151737e+02 | -3.0683119096851260e+02 | -6.0018749446995230e+01
2.4671537206372818e+02 | -3.0673907254432345e+02 | -6.0023700480595267e+01
2.4682545168480496e+02 | -3.0685530426525202e+02 | -6.0029852580447056e+01
2.4716005962614176e+02 | -3.0719745694881277e+02 | -6.0037397322671012e+01
2.4773996011336757e+02 | -3.0778655385702160e+02 | -6.0046593743654029e+01
2.4859057228158977e+02 | -3.0864837179411461e+02 | -6.0057799512524838e+01
2.4974372059664069e+02 | -3.0981524005310922e+02 | -6.0071519456468536e+01
2.5124012623971529e+02 | -3.1132861001608973e+02 | -6.0088483776374431e+01
2.5313307429183385e+02 | -3.1324285317522083e+02 | -6.0109778883386980e+01
2.5549400866282252e+02 | -3.1563108414114862e+02 | -6.0137075478326096e+01
2.5842141189963309e+02 | -3.1859445736135984e+02 | -6.0173045461726758e+01
2.6205554703170628e+02 | -3.2227771487403868e+02 | -6.0222167842332397e+01
2.6660426170054194e+02 | -3.2689665703116577e+02 | -6.0292395330623833e+01
2.7239115002887138e+02 | -3.3279005064743205e+02 | -6.0398900618560674e+01
2.7995295905122043e+02 | -3.4052640043481290e+02 | -6.0573441383592467e+01
2.9025820526272787e+02 | -3.5114951252334612e+02 | -6.0891307260618248e+01
3.0527230514140268e+02 | -3.6683803212368440e+02 | -6.1565726982281717e+01
3.2974976423126600e+02 | -3.9314421682654199e+02 | -6.3394452595275993e+01
3.7908726683976840e+02 | -4.5045827707568611e+02 | -7.1371010235917709e+01
5.3410530892538304e+02 | -7.4998915788324416e+02 | -2.1588384895786112e+02
4.9752749056868061e+02 | -6.4273093064306920e+02 | -1.4520344007438860e+02
3.7543227982928119e+02 | -4.4456437725300333e+02 | -6.9132097423722144e+01
3.3627702493899830e+02 | -3.9934804546501630e+02 | -6.3071020526018003e+01
3.1830687445853960e+02 | -3.7987781023554675e+02 | -6.1570935777007151e+01
3.0900281864455496e+02 | -3.7002371751764241e+02 | -6.1020898873087447e+01
3.0434623413410327e+02 | -3.6512835921987920e+02 | -6.0782125085775931e+01
3.0269378912126626e+02 | -3.6337001784195559e+02 | -6.0676228720689323e+01
3.0330164120893863e+02 | -3.6394163539843009e+02 | -6.0639994189491460e+01
3.0585349590153226e+02 | -3.6650221251755255e+02 | -6.0648716616020295e+01
3.1028963542663189e+02 | -3.7098394165217644e+02 | -6.0694306225544551e+01
3.1675589109748449e+02 | -3.7753485496346150e+02 | -6.0778963865977005e+01
3.2562560070196957e+02 | -3.8654139439649907e+02 | -6.0915793694529498e+01
3.3760568869187694e+02 | -3.9874257854683196e+02 | -6.1136889854955029e+01
3.5400915316086628e+02 | -4.1552877754047324e+02 | -6.1519624379606967e+01
3.7747899196895082e+02 | -4.3975818826718927e+02 | -6.2279196298238446e+01
4.1430958729579385e+02 | -4.7851029572725423e+02 | -6.4200708431460384e+01
4.8496713298426317e+02 | -5.5706590664957912e+02 | -7.2098773665315946e+01
7.1618781811369536e+02 | -9.3704938759518950e+02 | -2.2086156948149414e+02
6.6339131861448243e+02 | -7.9924676689421926e+02 | -1.3585544827973683e+02
5.3289563660004251e+02 | -6.0395981088096653e+02 | -7.1064174280924021e+01
5.2513262760664588e+02 | -5.9277763863136317e+02 | -6.7645011024717292e+01
5.5560719987394600e+02 | -6.2599906652133348e+02 | -7.0391866647387474e+01
5.8437494810711860e+02 | -6.5727932772524832e+02 | -7.2904379618129724e+01
6.0149519274286206e+02 | -6.7431829431874746e+02 | -7.2823101575885403e+01
7.3370564832664422e+02 | -8.5676780092068248e+02 | -1.2306215259403825e+02
7.5859712411873704e+02 | -9.1501049212371970e+02 | -1.5641336800498266e+02
5.5467600138832995e+02 | -6.2522397063683968e+02 | -7.0547969248509730e+01
5.0046189460222371e+02 | -5.6754401375963562e+02 | -6.7082119157411910e+01
4.6807791681921947e+02 | -5.3425373892686673e+02 | -6.6175822107647264e+01
4.3611965001483452e+02 | -5.0098389486682737e+02 | -6.4864244851992851e+01
4.0494974702750915e+02 | -4.6846462269992497e+02 | -6.3514875672415826e+01
3.7880790440514221e+02 | -4.4138738463593376e+02 | -6.2579480230791546e+01
3.5931549710239597e+02 | -4.2139292188365033e+02 | -6.2077424781254365e+01
3.4650465989628879e+02 | -4.0843014945104653e+02 | -6.1925489554757746e+01
3.4048660202796293e+02 | -4.0260458409020032e+02 | -6.2117982062237388e+01
3.4260695113496462e+02 | -4.0544782192377096e+02 | -6.2840870788806342e+01
3.5749733493259600e+02 | -4.2239307738459490e+02 | -6.4895742451998899e+01
4.0145261514038867e+02 | -4.7423539956194344e+02 | -7.2782784421554766e+01
5.6734529134303966e+02 | -7.3791613808749003e+02 | -1.7057084674445036e+02
5.8635801264957536e+02 | -7.9180463770431129e+02 | -2.0544662505473593e+02
3.8475473055433395e+02 | -4.5865097633691755e+02 | -7.3896245782583605e+01
3.2147208517718332e+02 | -3.8638830719007279e+02 | -6.4916222012889477e+01
2.8831263677267145e+02 | -3.5087004501881131e+02 | -6.2557408246139858e+01
2.6673347565832984e+02 | -3.2832552792527503e+02 | -6.1592052266945188e+01
2.5099709457928589e+02 | -3.1209401104020418e+02 | -6.1096916460918294e+01
2.3870800961381732e+02 | -2.9951354800426969e+02 | -6.0805538390452369e+01
2.2867111547625018e+02 | -2.8928860147510301e+02 | -6.0617485998852828e+01
2.2021477508623610e+02 | -2.8070262695207128e+02 | -6.0487851865835182e+01
2.1292781499465394e+02 | -2.7332181534863071e+02 | -6.0394000353976764e+01
2.0654175805979722e+02 | -2.6686521748549910e+02 | -6.0323459425701884e+01
2.0087228807512986e+02 | -2.6114115491645822e+02 | -6.0268866841328361e+01
1.9578771901233154e+02 | -2.5601335039377614e+02 | -6.0225631381444600e+01
1.9119088729046331e+02 | -2.5138164636646141e+02 | -6.0190759075998102e+01
1.8700819469335443e+02 | -2.4717041889915191e+02 | -6.0162224205797486e+01
1.8318268388301189e+02 | -2.4332129736496918e+02 | -6.0138613481957293e+01
1.7966949960383863e+02 | -2.3978841500561501e+02 | -6.0118915401776377e+01
1.7643282030555636e+02 | -2.3653521095104065e+02 | -6.0102390645484292e+01
1.7344372902153623e+02 | -2.3353221869104740e+02 | -6.0088489669511176e+01
1.7067870358950333e+02 | -2.3075550241574663e+02 | -6.0076798826243305e+01
1.6811852728959656e+02 | -2.2818553159899400e+02 | -6.0067004309397447e+01
1.6574749280912653e+02 | -2.2580636039566375e+02 | -6.0058867586537218e+01
1.6355281651927203e+02 | -2.2360502497792081e+02 | -6.0052208458648778e+01
1.6152420795331676e+02 | -2.2157110129740141e+02 | -6.0046893344084651e+01
1.5965355761653694e+02 | -2.1969638488737300e+02 | -6.0042827270836057e+01
1.5793471862042458e+02 | -2.1797466724143840e+02 | -6.0039948621013821e+01
1.5636336640576712e+02 | -2.1640159244796274e+02 | -6.0038226042195618e+01
1.5493692744925912e+02 | -2.1497458465253584e+02 | -6.0037657203276723e+01
1.5365457332187688e+02 | -2.1369284260121552e+02 | -6.0038269279338635e+01
1.5251728153319303e+02 | -2.1255740277118747e+02 | -6.0040121237994441e+01
1.5152796992494396e+02 | -2.1157127812607979e+02 | -6.0043308201135829e+01
1.5069171769774255e+02 | -2.1073968610468469e+02 | -6.0047968406942147e+01
1.5001609440516046e+02 | -2.1007038805144012e+02 | -6.0054293646279660e+01
1.4951162979304661e+02 | -2.0957417436415935e+02 | -6.0062544571112738e+01
1.4919247433683958e+02 | -2.0926554743448287e+02 | -6.0073073097643288e+01
1.4907732626016644e+02 | -2.0916368173863034e+02 | -6.0086355478463901e+01
1.4919074174306911e+02 | -2.0929378365224181e+02 | -6.0103041909172703e+01
1.4956501166587435e+02 | -2.0968904421991306e+02 | -6.0124032554038706e+01
1.5024290030522687e+02 | -2.1039349749413793e+02 | -6.0150597188911064e+01
1.5128173663261640e+02 | -2.1146630615440117e+02 | -6.0184569521784766e+01
1.5275970269080568e+02 | -2.1298837746365328e+02 | -6.0228674772847597e+01
1.5478583448942743e+02 | -2.1507294123389806e+02 | -6.0287106744470634e+01
1.5751659222868398e+02 | -2.1788319143856830e+02 | -6.0366599209884328e+01
1.6118471146485695e+02 | -2.2166325715973409e+02 | -6.0478545694877141e+01
1.6615259966178229e+02 | -2.2679613629355120e+02 | -6.0643536631768910e+01
1.7301905607351171e+02 | -2.3392114643455483e+02 | -6.0902090361043122e+01
1.8285495983363302e+02 | -2.4419856016100906e+02 | -6.1343600327376038e+01
1.9779926772766350e+02 | -2.5999930955468341e+02 | -6.2200041827019902e+01
2.2289190834939774e+02 | -2.8713679579716177e+02 | -6.4244887447764029e+01
2.7377729014584719e+02 | -3.4529949070565664e+02 | -7.1522200559809448e+01
4.3405853056171952e+02 | -5.8508462566839319e+02 | -1.5102609510667367e+02
4.9963862270212746e+02 | -7.4151972970609631e+02 | -2.4188110700396885e+02
2.8610402163838103e+02 | -3.6073049168834251e+02 | -7.4626470049961483e+01
2.2504568724370733e+02 | -2.8992546860046099e+02 | -6.4879781356753654e+01
1.9551320391342671e+02 | -2.5793885001634334e+02 | -6.2425646102916630e+01
1.7763803382378936e+02 | -2.3908522835518156e+02 | -6.1447194531392199e+01
1.6543701259703056e+02 | -2.2639347179216574e+02 | -6.0956459195135182e+01
1.5646309423941193e+02 | -2.1713697245247243e+02 | -6.0673878213060505e+01
1.4951927093946296e+02 | -2.1001472281452655e+02 | -6.0495451875063594e+01
1.4394660824583002e+02 | -2.0432176027301296e+02 | -6.0375152027182935e+01
1.3935060299187251e+02 | -1.9964059112853536e+02 | -6.0289988136662856e+01
1.3547977198575219e+02 | -1.9570717530248550e+02 | -6.0227403316733302e+01
1.3216582625909979e+02 | -1.9234587735880910e+02 | -6.0180051099709317e+01
1.2929172851155647e+02 | -1.8943512116876778e+02 | -6.0143392657211308e+01
1.2677352054196838e+02 | -1.8688801784100582e+02 | -6.0114497299037438e+01
1.2454943884088583e+02 | -1.8464084172943234e+02 | -6.0091402888546511e+01
1.2257311275130562e+02 | -1.8264586856013423e+02 | -6.0072755808828617e+01
1.2080916061232297e+02 | -1.8086675950586863e+02 | -6.0057598893545659e+01
1.1923025253538503e+02 | -1.7927549417167094e+02 | -6.0045241636285908e+01
1.1781510230483508e+02 | -1.7785028044084009e+02 | -6.0035178136005015e+01
1.1654706662102484e+02 | -1.7657410040858332e+02 | -6.0027033787558480e+01
1.1541315294853152e+02 | -1.7543368281841413e+02 | -6.0020529869882608e+01
1.1440330998341528e+02 | -1.7441876961392094e+02 | -6.0015459630505660e+01
1.1350991921109603e+02 | -1.7352159119642357e+02 | -6.0011671985327538e+01
1.1272743407359334e+02 | -1.7273649450584492e+02 | -6.0009060432251573e+01
1.1205213156188231e+02 | -1.7205968723923920e+02 | -6.0007555677356891e+01
1.1148195346731411e+02 | -1.7148907450985826e+02 | -6.0007121042544142e+01
1.1101642340921866e+02 | -1.7102417351428358e+02 | -6.0007750105064915e+01
