3.5000000000000000e+00 | -6.3319264861573473e+01 | -5.9819264861573473e+01
3.5233115730151949e+00 | -6.3342578258535958e+01 | -5.9819266685520766e+01
3.5467397874468949e+00 | -6.3366008309033148e+01 | -5.9819268521586253e+01
3.5702849821401816e+00 | -6.3389555351974508e+01 | -5.9819270369834328e+01
3.5939474984048836e+00 | -6.3413219728735001e+01 | -5.9819272230330114e+01
3.6177276800331715e+00 | -6.3437001783172533e+01 | -5.9819274103139364e+01
3.6416258733173201e+00 | -6.3460901861645738e+01 | -5.9819275988328414e+01
3.6656424270676555e+00 | -6.3484920313031985e+01 | -5.9819277885964333e+01
3.6897776926307193e+00 | -6.3509057488745555e+01 | -5.9819279796114834e+01
3.7140320239076106e+00 | -6.3533313742755944e+01 | -5.9819281718848330e+01
3.7384057773725377e+00 | -6.3557689431606363e+01 | -5.9819283654233828e+01
3.7628993120915717e+00 | -6.3582184914432688e+01 | -5.9819285602341118e+01
3.7875129897415927e+00 | -6.3606800552982158e+01 | -5.9819287563240565e+01
3.8122471746294684e+00 | -6.3631536711632862e+01 | -5.9819289537003392e+01
3.8371022337114136e+00 | -6.3656393757412800e+01 | -5.9819291523701388e+01
3.8620785366125867e+00 | -6.3681372060019754e+01 | -5.9819293523407168e+01
3.8871764556468831e+00 | -6.3706471991840871e+01 | -5.9819295536193991e+01
3.9123963658369609e+00 | -6.3731693927972906e+01 | -5.9819297562135944e+01
3.9377386449344778e+00 | -6.3757038246242175e+01 | -5.9819299601307698e+01
3.9632036734405487e+00 | -6.3782505327225515e+01 | -5.9819301653784969e+01
3.9887918346264559e+00 | -6.3808095554270267e+01 | -5.9819303719643813e+01
4.0145035145545496e+00 | -6.3833809313515943e+01 | -5.9819305798961395e+01
4.0403391020994084e+00 | -6.3859646993914922e+01 | -5.9819307891815512e+01
4.0662989889692263e+00 | -6.3885608987253974e+01 | -5.9819309998284751e+01
4.0923835697274420e+00 | -6.3911695688175982e+01 | -5.9819312118448536e+01
4.1185932418146018e+00 | -6.3937907494201696e+01 | -5.9819314252387095e+01
4.1449284055704814e+00 | -6.3964244805751854e+01 | -5.9819316400181371e+01
4.1713894642564391e+00 | -6.3990708026169699e+01 | -5.9819318561913263e+01
4.1979768240780349e+00 | -6.4017297561743490e+01 | -5.9819320737665457e+01
4.2246908942078898e+00 | -6.4044013821729337e+01 | -5.9819322927521448e+01
4.2515320868088242e+00 | -6.4070857218374272e+01 | -5.9819325131565449e+01
4.2785008170572336e+00 | -6.4097828166940189e+01 | -5.9819327349882954e+01
4.3055975031667479e+00 | -6.4124927085726583e+01 | -5.9819329582559831e+01
4.3328225664121458e+00 | -6.4152154396095284e+01 | -5.9819331829683136e+01
4.3601764311535591e+00 | -6.4179510522494255e+01 | -5.9819334091340693e+01
4.3876595248609291e+00 | -6.4206995892482212e+01 | -5.9819336367621283e+01
4.4152722781387608e+00 | -6.4234610936753342e+01 | -5.9819338658614583e+01
4.4430151247511596e+00 | -6.4262356089162310e+01 | -5.9819340964411154e+01
4.4708885016471420e+00 | -6.4290231786749686e+01 | -5.9819343285102548e+01
4.4988928489862552e+00 | -6.4318238469767593e+01 | -5.9819345620781334e+01
4.5270286101644750e+00 | -6.4346376581705272e+01 | -5.9819347971540793e+01
4.5552962318404155e+00 | -6.4374646569315800e+01 | -5.9819350337475385e+01
4.5836961639618377e+00 | -6.4403048882642381e+01 | -5.9819352718680541e+01
4.6122288597924648e+00 | -6.4431583975044987e+01 | -5.9819355115252520e+01
4.6408947759391141e+00 | -6.4460252303227932e+01 | -5.9819357527288815e+01
4.6696943723791353e+00 | -6.4489054327266913e+01 | -5.9819359954887780e+01
4.6986281124881799e+00 | -6.4517990510636935e+01 | -5.9819362398148755e+01
4.7276964630682858e+00 | -6.4547061320240630e+01 | -5.9819364857172346e+01
4.7568998943763123e+00 | -6.4576267226436229e+01 | -5.9819367332059919e+01
4.7862388801526787e+00 | -6.4605608703066849e+01 | -5.9819369822914169e+01
4.8157138976504630e+00 | -6.4635086227489154e+01 | -5.9819372329838693e+01
4.8453254276648456e+00 | -6.4664700280603100e+01 | -5.9819374852938253e+01
4.8750739545628878e+00 | -6.4694451346881607e+01 | -5.9819377392318721e+01
4.9049599663136760e+00 | -6.4724339914400787e+01 | -5.9819379948087111e+01
4.9349839545188265e+00 | -6.4754366474870352e+01 | -5.9819382520351525e+01
4.9651464144433373e+00 | -6.4784531523664555e+01 | -5.9819385109221216e+01
4.9954478450468338e+00 | -6.4814835559853492e+01 | -5.9819387714806659e+01
5.0258887490151665e+00 | -6.4845279086234584e+01 | -5.9819390337219417e+01
5.0564696327924050e+00 | -6.4875862609364759e+01 | -5.9819392976572352e+01
5.0871910066132138e+00 | -6.4906586639592632e+01 | -5.9819395632979422e+01
5.1180533845356084e+00 | -6.4937451691091539e+01 | -5.9819398306555932e+01
5.1490572844741314e+00 | -6.4968458281892509e+01 | -5.9819400997418377e+01
5.1802032282334016e+00 | -6.4999606933917818e+01 | -5.9819403705684415e+01
5.2114917415421074e+00 | -6.5030898173015316e+01 | -5.9819406431473212e+01
5.2429233540873756e+00 | -6.5062332528992258e+01 | -5.9819409174904884e+01
5.2744985995495970e+00 | -6.5093910535650778e+01 | -5.9819411936101183e+01
5.3062180156376648e+00 | -6.5125632730822673e+01 | -5.9819414715185005e+01
5.3380821441246322e+00 | -6.5157499656405278e+01 | -5.9819417512280644e+01
5.3700915308838395e+00 | -6.5189511858397566e+01 | -5.9819420327513726e+01
5.4022467259254690e+00 | -6.5221669886936667e+01 | -5.9819423161011201e+01
5.4345482834335570e+00 | -6.5253974296335187e+01 | -5.9819426012901630e+01
5.4669967618034718e+00 | -6.5286425645118172e+01 | -5.9819428883314700e+01
5.4995927236798439e+00 | -6.5319024496061573e+01 | -5.9819431772381726e+01
5.5323367359950026e+00 | -6.5351771416230463e+01 | -5.9819434680235460e+01
5.5652293700078577e+00 | -6.5384666977017929e+01 | -5.9819437607010073e+01
5.5982712013432891e+00 | -6.5417711754184481e+01 | -5.9819440552841193e+01
5.6314628100320441e+00 | -6.5450906327898124e+01 | -5.9819443517866077e+01
5.6648047805511226e+00 | -6.5484251282774551e+01 | -5.9819446502223428e+01
5.6982977018646697e+00 | -6.5517747207918063e+01 | -5.9819449506053395e+01
5.7319421674654141e+00 | -6.5551394696963499e+01 | -5.9819452529498086e+01
5.7657387754166116e+00 | -6.5585194348117369e+01 | -5.9819455572700761e+01
5.7996881283945418e+00 | -6.5619146764201062e+01 | -5.9819458635806519e+01
5.8337908337315323e+00 | -6.5653252552693630e+01 | -5.9819461718962096e+01
5.8680475034595601e+00 | -6.5687512325775430e+01 | -5.9819464822315872e+01
5.9024587543543978e+00 | -6.5721926700372236e+01 | -5.9819467946017838e+01
5.9370252079803354e+00 | -6.5756496298200247e+01 | -5.9819471090219913e+01
5.9717474907354982e+00 | -6.5791221745810930e+01 | -5.9819474255075434e+01
6.0066262338977277e+00 | -6.5826103674637480e+01 | -5.9819477440739753e+01
6.0416620736710831e+00 | -6.5861142721041006e+01 | -5.9819480647369922e+01
6.0768556512329504e+00 | -6.5896339526357792e+01 | -5.9819483875124845e+01
6.1122076127817584e+00 | -6.5931694736946838e+01 | -5.9819487124165079e+01
6.1477186095853495e+00 | -6.5967209004238583e+01 | -5.9819490394653236e+01
6.1833892980299474e+00 | -6.6002882984783824e+01 | -5.9819493686753873e+01
6.2192203396698345e+00 | -6.6038717340303108e+01 | -5.9819497000633277e+01
6.2552124012776265e+00 | -6.6074712737737300e+01 | -5.9819500336459676e+01
6.2913661548952664e+00 | -6.6110869849298780e+01 | -5.9819503694403515e+01
6.3276822778856818e+00 | -6.6147189352522588e+01 | -5.9819507074636903e+01
6.3641614529851331e+00 | -6.6183671930319434e+01 | -5.9819510477334305e+01
6.4008043683562841e+00 | -6.6220318271028233e+01 | -5.9819513902671950e+01
6.4376117176419712e+00 | -6.6257129068470292e+01 | -5.9819517350828320e+01
6.4745842000197111e+00 | -6.6294105022003848e+01 | -5.9819520821984135e+01
6.5117225202569529e+00 | -6.6331246836578870e+01 | -5.9819524316321917e+01
6.5490273887670822e+00 | -6.6368555222793717e+01 | -5.9819527834026637e+01
6.5864995216661839e+00 | -6.6406030896951734e+01 | -5.9819531375285550e+01
6.6241396408306077e+00 | -6.6443674581118472e+01 | -5.9819534940287866e+01
6.6619484739552970e+00 | -6.6481487003180632e+01 | -5.9819538529225333e+01
6.6999267546129557e+00 | -6.6519468896904897e+01 | -5.9819542142291944e+01
6.7380752223140039e+00 | -6.6557621001997902e+01 | -5.9819545779683899e+01
6.7763946225674001e+00 | -6.6595944064167512e+01 | -5.9819549441600110e+01
6.8148857069422970e+00 | -6.6634438835183886e+01 | -5.9819553128241587e+01
6.8535492331305568e+00 | -6.6673106072942474e+01 | -5.9819556839811916e+01
6.8923859650101615e+00 | -6.6711946541527396e+01 | -5.9819560576517233e+01
6.9313966727094991e+00 | -6.6750961011275720e+01 | -5.9819564338566224e+01
6.9705821326725808e+00 | -6.6790150258842601e+01 | -5.9819568126170019e+01
7.0099431277251689e+00 | -6.6829515067267749e+01 | -5.9819571939542584e+01
7.0494804471418604e+00 | -6.6869056226042105e+01 | -5.9819575778900244e+01
7.0891948867141146e+00 | -6.6908774531176434e+01 | -5.9819579644462323e+01
7.1290872488192791e+00 | -6.6948670785269940e+01 | -5.9819583536450658e+01
7.1691583424905847e+00 | -6.6988745797580691e+01 | -5.9819587455090108e+01
7.2094089834881796e+00 | -6.7029000384096236e+01 | -5.9819591400608054e+01
7.2498399943711709e+00 | -6.7069435367606161e+01 | -5.9819595373234989e+01
7.2904522045707303e+00 | -6.7110051577775010e+01 | -5.9819599373204284e+01
7.3312464504642625e+00 | -6.7150849851216392e+01 | -5.9819603400752129e+01
7.3722235754506675e+00 | -6.7191831031568626e+01 | -5.9819607456117957e+01
7.4133844300266860e+00 | -6.7232995969570837e+01 | -5.9819611539544148e+01
7.4547298718644193e+00 | -6.7274345523140497e+01 | -5.9819615651276081e+01
7.4962607658899447e+00 | -6.7315880557452431e+01 | -5.9819619791562488e+01
7.5379779843631489e+00 | -6.7357601945018445e+01 | -5.9819623960655292e+01
7.5798824069587241e+00 | -6.7399510565768296e+01 | -5.9819628158809572e+01
7.6219749208483734e+00 | -6.7441607307132102e+01 | -5.9819632386283729e+01
7.6642564207842829e+00 | -6.7483893064123961e+01 | -5.9819636643339678e+01
7.7067278091838229e+00 | -6.7526368739426402e+01 | -5.9819640930242578e+01
7.7493899962155615e+00 | -6.7569035243476776e+01 | -5.9819645247261214e+01
7.7922438998865555e+00 | -6.7611893494554479e+01 | -5.9819649594667922e+01
7.8352904461309958e+00 | -6.7654944418869519e+01 | -5.9819653972738521e+01
7.8785305689002056e+00 | -6.7698188950652806e+01 | -5.9819658381752603e+01
7.9219652102540232e+00 | -6.7741628032247462e+01 | -5.9819662821993440e+01
7.9655953204536001e+00 | -6.7785262614201656e+01 | -5.9819667293748054e+01
8.0094218580556316e+00 | -6.7829093655363010e+01 | -5.9819671797307379e+01
8.0534457900080341e+00 | -6.7873122122974380e+01 | -5.9819676332966345e+01
8.0976680917471775e+00 | -6.7917348992770840e+01 | -5.9819680901023659e+01
8.1420897472965752e+00 | -6.7961775249078883e+01 | -5.9819685501782310e+01
8.1867117493671557e+00 | -6.8006401884916343e+01 | -5.9819690135549187e+01
8.2315350994591245e+00 | -6.8051229902094732e+01 | -5.9819694802635610e+01
8.2765608079654456e+00 | -6.8096260311322325e+01 | -5.9819699503356880e+01
8.3217898942769359e+00 | -6.8141494132309901e+01 | -5.9819704238032969e+01
8.3672233868890888e+00 | -6.8186932393877186e+01 | -5.9819709006988099e+01
8.4128623235105824e+00 | -6.8232576134061418e+01 | -5.9819713810550837e+01
8.4587077511735274e+00 | -6.8278426400228170e+01 | -5.9819718649054643e+01
8.5047607263455411e+00 | -6.8324484249182888e+01 | -5.9819723522837350e+01
8.5510223150435873e+00 | -6.8370750747285342e+01 | -5.9819728432241753e+01
8.5974935929497285e+00 | -6.8417226970565110e+01 | -5.9819733377615378e+01
8.6441756455287262e+00 | -6.8463914004839296e+01 | -5.9819738359310570e+01
8.6910695681475918e+00 | -6.8510812945832399e+01 | -5.9819743377684809e+01
8.7381764661971353e+00 | -6.8557924899297774e+01 | -5.9819748433100642e+01
8.7854974552154879e+00 | -6.8605250981141253e+01 | -5.9819753525925762e+01
8.8330336610137170e+00 | -6.8652792317546755e+01 | -5.9819758656533040e+01
8.8807862198034968e+00 | -6.8700550045104492e+01 | -5.9819763825300996e+01
8.9287562783269880e+00 | -6.8748525310940295e+01 | -5.9819769032613308e+01
8.9769449939888304e+00 | -6.8796719272848236e+01 | -5.9819774278859406e+01
9.0253535349904261e+00 | -6.8845133099424856e+01 | -5.9819779564434427e+01
9.0739830804664869e+00 | -6.8893767970205573e+01 | -5.9819784889739083e+01
9.1228348206238881e+00 | -6.8942625075804116e+01 | -5.9819790255180230e+01
9.1719099568829492e+00 | -6.8991705618053459e+01 | -5.9819795661170510e+01
9.2212097020210955e+00 | -6.9041010810149956e+01 | -5.9819801108128857e+01
9.2707352803190481e+00 | -6.9090541876799392e+01 | -5.9819806596480348e+01
9.3204879277095181e+00 | -6.9140300054365895e+01 | -5.9819812126656373e+01
9.3704688919285104e+00 | -6.9190286591023295e+01 | -5.9819817699094784e+01
9.4206794326692584e+00 | -6.9240502746909357e+01 | -5.9819823314240097e+01
9.4711208217388858e+00 | -6.9290949794282412e+01 | -5.9819828972543526e+01
9.5217943432178327e+00 | -6.9341629017680887e+01 | -5.9819834674463053e+01
9.5727012936220888e+00 | -6.9392541714085908e+01 | -5.9819840420463819e+01
9.6238429820683304e+00 | -6.9443689193086158e+01 | -5.9819846211017826e+01
9.6752207304420228e+00 | -6.9495072777046559e+01 | -5.9819852046604538e+01
9.7268358735685254e+00 | -6.9546693801279289e+01 | -5.9819857927710764e+01
9.7786897593872872e+00 | -6.9598553614218133e+01 | -5.9819863854830842e+01
9.8307837491291927e+00 | -6.9650653577595918e+01 | -5.9819869828466722e+01
9.8831192174971783e+00 | -6.9702995066625547e+01 | -5.9819875849128366e+01
9.9356975528501081e+00 | -6.9755579470183591e+01 | -5.9819881917333483e+01
9.9885201573900204e+00 | -6.9808408190998335e+01 | -5.9819888033608315e+01
1.0041588447352877e+01 | -6.9861482645840084e+01 | -5.9819894198487205e+01
1.0094903853202823e+01 | -6.9914804265715631e+01 | -5.9819900412512808e+01
1.0148467819830056e+01 | -6.9968374496066929e+01 | -5.9819906676236869e+01
1.0202281806752397e+01 | -7.0022194796972116e+01 | -5.9819912990219720e+01
1.0256347288320685e+01 | -7.0076266643351389e+01 | -5.9819919355030706e+01
1.0310665753927985e+01 | -7.0130591525176470e+01 | -5.9819925771248485e+01
1.0365238708222837e+01 | -7.0185170947683858e+01 | -5.9819932239461025e+01
1.0420067671326510e+01 | -7.0240006431592576e+01 | -5.9819938760266069e+01
1.0475154179054442e+01 | -7.0295099513325368e+01 | -5.9819945334270926e+01
1.0530499783141945e+01 | -7.0350451745235048e+01 | -5.9819951962093100e+01
1.0586106051474246e+01 | -7.0406064695834317e+01 | -5.9819958644360071e+01
1.0641974568321007e+01 | -7.0461939950031081e+01 | -5.9819965381710077e+01
1.0698106934575444e+01 | -7.0518079109367207e+01 | -5.9819972174791765e+01
1.0754504767998068e+01 | -7.0574483792262882e+01 | -5.9819979024264811e+01
1.0811169703465309e+01 | -7.0631155634265156e+01 | -5.9819985930799845e+01
1.0868103393222970e+01 | -7.0688096288301978e+01 | -5.9819992895079011e+01
1.0925307507144794e+01 | -7.0745307424940847e+01 | -5.9819999917796054e+01
1.0982783732996161e+01 | -7.0802790732652468e+01 | -5.9820006999656307e+01
1.1040533776703080e+01 | -7.0860547918080641e+01 | -5.9820014141377563e+01
1.1098559362626590e+01 | -7.0918580706316448e+01 | -5.9820021343689859e+01
1.1156862233842761e+01 | -7.0976890841178488e+01 | -5.9820028607335729e+01
1.1215444152428365e+01 | -7.1035480085499245e+01 | -5.9820035933070884e+01
1.1274306899752398e+01 | -7.1094350221416533e+01 | -5.9820043321664137e+01
1.1333452276773597e+01 | -7.1153503050671418e+01 | -5.9820050773897819e+01
1.1392882104344130e+01 | -7.1212940394912209e+01 | -5.9820058290568078e+01
1.1452598223519541e+01 | -7.1272664096004689e+01 | -5.9820065872485145e+01
1.1512602495875200e+01 | -7.1332676016349055e+01 | -5.9820073520473855e+01
1.1572896803829407e+01 | -7.1392978039203015e+01 | -5.9820081235373607e+01
1.1633483050973249e+01 | -7.1453572069012353e+01 | -5.9820089018039106e+01
1.1694363162407495e+01 | -7.1514460031747916e+01 | -5.9820096869340418e+01
1.1755539085086648e+01 | -7.1575643875250165e+01 | -5.9820104790163519e+01
1.1817012788170345e+01 | -7.1637125569580760e+01 | -5.9820112781410415e+01
1.1878786263382340e+01 | -7.1698907107382283e+01 | -5.9820120843999945e+01
1.1940861525377217e+01 | -7.1760990504244859e+01 | -5.9820128978867643e+01
1.2003240612115107e+01 | -7.1823377799081584e+01 | -5.9820137186966477e+01
1.2065925585244546e+01 | -7.1886071054511859e+01 | -5.9820145469267317e+01
1.2128918530493761e+01 | -7.1949072357252859e+01 | -5.9820153826759096e+01
1.2192221558070608e+01 | -7.2012383818519936e+01 | -5.9820162260449329e+01
1.2255836803071318e+01 | -7.2076007574436062e+01 | -5.9820170771364744e+01
1.2319766425898427e+01 | -7.2139945786449999e+01 | -5.9820179360551570e+01
1.2384012612688021e+01 | -7.2204200641763961e+01 | -5.9820188029075936e+01
1.2448577575746615e+01 | -7.2268774353771249e+01 | -5.9820196778024638e+01
1.2513463553997964e+01 | -7.2333669162503327e+01 | -5.9820205608505361e+01
1.2578672813439967e+01 | -7.2398887335087295e+01 | -5.9820214521647330e+01
1.2644207647612109e+01 | -7.2464431166213956e+01 | -5.9820223518601850e+01
1.2710070378073596e+01 | -7.2530302978616390e+01 | -5.9820232600542795e+01
1.2776263354892599e+01 | -7.2596505123559822e+01 | -5.9820241768667223e+01
1.2842788957146812e+01 | -7.2663039981342763e+01 | -5.9820251024195954e+01
1.2909649593435772e+01 | -7.2729909961809895e+01 | -5.9820260368374122e+01
1.2976847702405188e+01 | -7.2797117504877150e+01 | -5.9820269802471962e+01
1.3044385753283667e+01 | -7.2864665081068736e+01 | -5.9820279327785073e+01
1.3112266246432178e+01 | -7.2932555192067738e+01 | -5.9820288945635561e+01
1.3180491713906690e+01 | -7.3000790371278953e+01 | -5.9820298657372263e+01
1.3249064720034239e+01 | -7.3069373184406118e+01 | -5.9820308464371877e+01
1.3317987862002997e+01 | -7.3138306230042318e+01 | -5.9820318368039324e+01
1.3387263770466600e+01 | -7.3207592140275253e+01 | -5.9820328369808649e+01
1.3456895110163266e+01 | -7.3277233581307044e+01 | -5.9820338471143778e+01
1.3526884580550114e+01 | -7.3347233254089488e+01 | -5.9820348673539371e+01
1.3597234916453134e+01 | -7.3417593894974630e+01 | -5.9820358978521497e+01
1.3667948888733294e+01 | -7.3488318276381904e+01 | -5.9820369387648611e+01
1.3739029304969280e+01 | -7.3559409207481607e+01 | -5.9820379902512329e+01
1.3810479010157383e+01 | -7.3630869534895623e+01 | -5.9820390524738244e+01
1.3882300887429027e+01 | -7.3702702143416133e+01 | -5.9820401255987107e+01
1.3954497858786572e+01 | -7.3774909956742405e+01 | -5.9820412097955831e+01
1.4027072885857852e+01 | -7.3847495938235710e+01 | -5.9820423052377862e+01
1.4100028970670095e+01 | -7.3920463091695225e+01 | -5.9820434121025130e+01
1.4173369156443908e+01 | -7.3993814462152073e+01 | -5.9820445305708162e+01
1.4247096528407758e+01 | -7.4067553136685731e+01 | -5.9820456608277972e+01
1.4321214214633857e+01 | -7.4141682245260469e+01 | -5.9820468030626614e+01
1.4395725386895922e+01 | -7.4216204961584793e+01 | -5.9820479574688875e+01
1.4470633261549679e+01 | -7.4291124503992478e+01 | -5.9820491242442799e+01
1.4545941100436709e+01 | -7.4366444136348349e+01 | -5.9820503035911642e+01
1.4621652211812517e+01 | -7.4442167168977250e+01 | -5.9820514957164733e+01
1.4697769951299531e+01 | -7.4518296959618368e+01 | -5.9820527008318834e+01
1.4774297722865903e+01 | -7.4594836914405846e+01 | -5.9820539191539943e+01
1.4851238979830956e+01 | -7.4671790488874876e+01 | -5.9820551509043923e+01
1.4928597225898137e+01 | -7.4749161188997022e+01 | -5.9820563963098884e+01
1.5006376016216432e+01 | -7.4826952572242405e+01 | -5.9820576556025969e+01
1.5084578958471226e+01 | -7.4905168248672624e+01 | -5.9820589290201397e+01
1.5163209714005507e+01 | -7.4983811882063591e+01 | -5.9820602168058087e+01
1.5242271998972544e+01 | -7.5062887191059616e+01 | -5.9820615192087075e+01
1.5321769585521109e+01 | -7.5142397950360532e+01 | -5.9820628364839422e+01
1.5401706303014276e+01 | -7.5222347991942527e+01 | -5.9820641688928248e+01
1.5482086039283125e+01 | -7.5302741206313385e+01 | -5.9820655167030260e+01
1.5562912741916371e+01 | -7.5383581543804425e+01 | -5.9820668801888054e+01
1.5644190419587339e+01 | -7.5464873015899272e+01 | -5.9820682596311933e+01
1.5725923143419514e+01 | -7.5546619696601567e+01 | -5.9820696553182053e+01
1.5808115048392072e+01 | -7.5628825723842922e+01 | -5.9820710675450854e+01
1.5890770334786804e+01 | -7.5711495300931645e+01 | -5.9820724966144837e+01
1.5973893269677905e+01 | -7.5794632698045376e+01 | -5.9820739428367474e+01
1.6057488188466237e+01 | -7.5878242253767553e+01 | -5.9820754065301315e+01
1.6141559496459593e+01 | -7.5962328376670143e+01 | -5.9820768880210551e+01
1.6226111670500678e+01 | -7.6046895546944668e+01 | -5.9820783876443990e+01
1.6311149260644658e+01 | -7.6131948318081896e+01 | -5.9820799057437242e+01
1.6396676891887878e+01 | -7.6217491318603919e+01 | -5.9820814426716041e+01
1.6482699265949950e+01 | -7.6303529253848964e+01 | -5.9820829987899018e+01
1.6569221163110921e+01 | -7.6390066907811743e+01 | -5.9820845744700819e+01
1.6656247444105812e+01 | -7.6477109145041041e+01 | -5.9820861700935225e+01
1.6743783052078591e+01 | -7.6564660912597205e+01 | -5.9820877860518614e+01
1.6831833014597862e+01 | -7.6652727242071165e+01 | -5.9820894227473303e+01
1.6920402445736649e+01 | -7.6741313251667975e+01 | -5.9820910805931327e+01
1.7009496548218735e+01 | -7.6830424148356698e+01 | -5.9820927600137964e+01
1.7099120615634199e+01 | -7.6920065230089847e+01 | -5.9820944614455648e+01
1.7189280034726774e+01 | -7.7010241888095109e+01 | -5.9820961853368331e+01
1.7279980287755762e+01 | -7.7100959609241173e+01 | -5.9820979321485410e+01
1.7371226954935864e+01 | -7.7192223978481920e+01 | -5.9820997023546056e+01
1.7463025716957397e+01 | -7.7284040681381782e+01 | -5.9821014964424386e+01
1.7555382357590723e+01 | -7.7376415506724214e+01 | -5.9821033149133491e+01
1.7648302766377853e+01 | -7.7469354349208686e+01 | -5.9821051582830833e+01
1.7741792941415042e+01 | -7.7562863212238554e+01 | -5.9821070270823512e+01
1.7835858992229905e+01 | -7.7656948210803336e+01 | -5.9821089218573434e+01
1.7930507142757058e+01 | -7.7751615574460175e+01 | -5.9821108431703117e+01
1.8025743734416316e+01 | -7.7846871650418009e+01 | -5.9821127916001693e+01
1.8121575229297697e+01 | -7.7942722906728335e+01 | -5.9821147677430638e+01
1.8218008213457757e+01 | -7.8039175935588688e+01 | -5.9821167722130930e+01
1.8315049400331958e+01 | -7.8136237456761052e+01 | -5.9821188056429094e+01
1.8412705634267901e+01 | -7.8233914321112493e+01 | -5.9821208686844592e+01
1.8510983894184783e+01 | -7.8332213514281676e+01 | -5.9821229620096894e+01
1.8609891297364264e+01 | -7.8431142160477805e+01 | -5.9821250863113541e+01
1.8709435103378681e+01 | -7.8530707526416435e+01 | -5.9821272423037755e+01
1.8809622718162466e+01 | -7.8630917025399498e+01 | -5.9821294307237032e+01
1.8910461698233114e+01 | -7.8731778221544957e+01 | -5.9821316523311843e+01
1.9011959755068240e+01 | -7.8833298834173249e+01 | -5.9821339079105009e+01
1.9114124759645833e+01 | -7.8935486742356673e+01 | -5.9821361982710840e+01
1.9216964747154876e+01 | -7.9038349989640722e+01 | -5.9821385242485846e+01
1.9320487921884144e+01 | -7.9141896788942901e+01 | -5.9821408867058757e+01
1.9424702662297189e+01 | -7.9246135527638899e+01 | -5.9821432865341706e+01
1.9529617526302196e+01 | -7.9351074772844200e+01 | -5.9821457246542003e+01
1.9635241256725458e+01 | -7.9456723276899552e+01 | -5.9821482020174095e+01
1.9741582786998293e+01 | -7.9563089983070611e+01 | -5.9821507196072318e+01
1.9848651247067000e+01 | -7.9670184031471166e+01 | -5.9821532784404170e+01
1.9956455969536741e+01 | -7.9778014765221187e+01 | -5.9821558795684446e+01
2.0065006496060178e+01 | -7.9886591736850448e+01 | -5.9821585240790270e+01
2.0174312583982790e+01 | -7.9995924714958647e+01 | -5.9821612130975858e+01
2.0284384213257141e+01 | -8.0106023691146490e+01 | -5.9821639477889349e+01
2.0395231593639203e+01 | -8.0216898887228837e+01 | -5.9821667293589634e+01
2.0506865172180525e+01 | -8.0328560762744900e+01 | -5.9821695590564374e+01
2.0619295641030863e+01 | -8.0441020022779782e+01 | -5.9821724381748922e+01
2.0732533945566743e+01 | -8.0554287626112995e+01 | -5.9821753680546252e+01
2.0846591292862190e+01 | -8.0668374793709660e+01 | -5.9821783500847474e+01
2.0961479160518952e+01 | -8.0783293017573470e+01 | -5.9821813857054522e+01
2.1077209305874558e+01 | -8.0899054069977453e+01 | -5.9821844764102892e+01
2.1193793775607467e+01 | -8.1015670013093910e+01 | -5.9821876237486443e+01
2.1311244915759964e+01 | -8.1133153209042646e+01 | -5.9821908293282682e+01
2.1429575382200515e+01 | -8.1251516330380980e+01 | -5.9821940948180469e+01
2.1548798151548489e+01 | -8.1370772371057143e+01 | -5.9821974219508654e+01
2.1668926532586131e+01 | -8.1490934657852151e+01 | -5.9822008125266024e+01
2.1789974178183400e+01 | -8.1612016862337214e+01 | -5.9822042684153814e+01
2.1911955097763347e+01 | -8.1734033013372482e+01 | -5.9822077915609135e+01
2.2034883670337614e+01 | -8.1856997510178630e+01 | -5.9822113839841016e+01
2.2158774658142967e+01 | -8.1980925136010896e+01 | -5.9822150477867929e+01
2.2283643220912076e+01 | -8.2105831072469883e+01 | -5.9822187851557807e+01
2.2409504930813945e+01 | -8.2231730914484842e+01 | -5.9822225983670897e+01
2.2536375788101449e+01 | -8.2358640686005401e+01 | -5.9822264897903949e+01
2.2664272237506104e+01 | -8.2486576856443961e+01 | -5.9822304618937856e+01
2.2793211185422532e+01 | -8.2615556357911132e+01 | -5.9822345172488596e+01
2.2923210017928454e+01 | -8.2745596603288249e+01 | -5.9822386585359794e+01
2.3054286619688277e+01 | -8.2876715505188230e+01 | -5.9822428885499953e+01
2.3186459393792504e+01 | -8.3008931495854867e+01 | -5.9822472102062363e+01
2.3319747282587990e+01 | -8.3142263548057414e+01 | -5.9822516265469424e+01
2.3454169789558406e+01 | -8.3276731197038387e+01 | -5.9822561407479981e+01
2.3589747002317960e+01 | -8.3412354563580081e+01 | -5.9822607561262117e+01
2.3726499616786139e+01 | -8.3549154378255722e+01 | -5.9822654761469579e+01
2.3864448962615896e+01 | -8.3687152006939783e+01 | -5.9822703044323887e+01
2.4003617029952828e+01 | -8.3826369477654183e+01 | -5.9822752447701355e+01
2.4144026497608618e+01 | -8.3966829508834465e+01 | -5.9822803011225844e+01
2.4285700762737818e+01 | -8.4108555539106078e+01 | -5.9822854776368260e+01
2.4428663972113931e+01 | -8.4251571758665563e+01 | -5.9822907786551632e+01
2.4572941055107478e+01 | -8.4395903142372006e+01 | -5.9822962087264528e+01
2.4718557758476717e+01 | -8.4541575484657912e+01 | -5.9823017726181192e+01
2.4865540683089698e+01 | -8.4688615436380417e+01 | -5.9823074753290719e+01
2.5013917322705979e+01 | -8.4837050543740617e+01 | -5.9823133221034638e+01
2.5163716104955363e+01 | -8.4986909289410377e+01 | -5.9823193184455015e+01
2.5314966434662530e+01 | -8.5138221136014536e+01 | -5.9823254701352006e+01
2.5467698739677537e+01 | -8.5291016572131269e+01 | -5.9823317832453732e+01
2.5621944519385295e+01 | -8.5445327160983169e+01 | -5.9823382641597874e+01
2.5777736396080556e+01 | -8.5601185592007525e+01 | -5.9823449195926969e+01
2.5935108169410654e+01 | -8.5758625735508645e+01 | -5.9823517566097991e+01
2.6094094874104162e+01 | -8.5917682700612019e+01 | -5.9823587826507861e+01
2.6254732841222307e+01 | -8.6078392896757975e+01 | -5.9823660055535669e+01
2.6417059763189329e+01 | -8.6240794098993334e+01 | -5.9823734335804005e+01
2.6581114762879992e+01 | -8.6404925517340359e+01 | -5.9823810754460368e+01
2.6746938467066094e+01 | -8.6570827870546495e+01 | -5.9823889403480401e+01
2.6914573084550021e+01 | -8.6738543464545472e+01 | -5.9823970379995451e+01
2.7084062489342028e+01 | -8.6908116275988434e+01 | -5.9824053786646402e+01
2.7255452309269678e+01 | -8.7079592041235927e+01 | -5.9824139731966248e+01
2.7428790020442538e+01 | -8.7253018351236349e+01 | -5.9824228330793815e+01
2.7604125048033595e+01 | -8.7428444752756008e+01 | -5.9824319704722413e+01
2.7781508873881229e+01 | -8.7605922856467046e+01 | -5.9824413982585817e+01
2.7960995151462516e+01 | -8.7785506452448217e+01 | -5.9824511300985705e+01
2.8142639828839926e+01 | -8.7967251633704706e+01 | -5.9824611804864780e+01
2.8326501280241377e+01 | -8.8151216928371213e+01 | -5.9824715648129839e+01
2.8512640446996784e+01 | -8.8337463441326619e+01 | -5.9824822994329836e+01
2.8701120988624858e+01 | -8.8526055006019632e+01 | -5.9824934017394774e+01
2.8892009444942580e+01 | -8.8717058347384409e+01 | -5.9825048902441829e+01
2.9085375410156800e+01 | -8.8910543256812218e+01 | -5.9825167846655418e+01
2.9281291719994964e+01 | -8.9106582780243883e+01 | -5.9825291060248915e+01
2.9479834653040516e+01 | -8.9305253420558543e+01 | -5.9825418767518030e+01
2.9681084147560206e+01 | -8.9506635355554508e+01 | -5.9825551207994302e+01
2.9885124035246022e+01 | -8.9710812672957104e+01 | -5.9825688637711082e+01
3.0092042293447371e+01 | -8.9917873624040936e+01 | -5.9825831330593566e+01
3.0301931317639912e+01 | -9.0127910897628354e+01 | -5.9825979579988442e+01
3.0514888216070119e+01 | -9.0341021916417944e+01 | -5.9826133700347825e+01
3.0731015128731187e+01 | -9.0557309157817770e+01 | -5.9826294029086583e+01
3.0950419573070491e+01 | -9.0776880501703999e+01 | -5.9826460928633509e+01
3.1173214819105247e+01 | -9.0999849607805260e+01 | -5.9826634788700012e+01
3.1399520296935833e+01 | -9.1226336325728084e+01 | -5.9826816028792251e+01
3.1629462040001005e+01 | -9.1456467140999550e+01 | -5.9827005100998548e+01
3.1863173167822481e+01 | -9.1690375660908089e+01 | -5.9827202493085608e+01
3.2100794412445445e+01 | -9.1928203144389911e+01 | -5.9827408731944466e+01
3.2342474693304922e+01 | -9.2170099080735781e+01 | -5.9827624387430859e+01
3.2588371745846587e+01 | -9.2416221822501015e+01 | -5.9827850076654428e+01
3.2838652809916063e+01 | -9.2666739278691495e+01 | -5.9828086468775432e+01
3.3093495384717293e+01 | -9.2921829675097797e+01 | -5.9828334290380504e+01
3.3353088058046197e+01 | -9.3181682389564259e+01 | -5.9828594331518062e+01
3.3617631418549188e+01 | -9.3446498871037079e+01 | -5.9828867452487891e+01
3.3887339060962873e+01 | -9.3716493652457302e+01 | -5.9829154591494429e+01
3.4162438695688898e+01 | -9.3991895468980715e+01 | -5.9829456773291817e+01
3.4443173375681781e+01 | -9.4272948494651828e+01 | -5.9829775118970048e+01
3.4729802855519139e+01 | -9.4559913712577981e+01 | -5.9830110857058841e+01
3.5022605099731990e+01 | -9.4853070435886579e+01 | -5.9830465336154589e+01
3.5321877960060448e+01 | -9.5152717999375895e+01 | -5.9830840039315447e+01
3.5627941044338534e+01 | -9.5459177644850499e+01 | -5.9831236600511964e+01
3.5941137803292420e+01 | -9.5772794626770633e+01 | -5.9831656823478212e+01
3.6261837865768683e+01 | -9.6093940569137445e+01 | -5.9832102703368761e+01
3.6590439657927526e+01 | -9.6423016109640912e+01 | -5.9832576451713386e+01
3.6927373347907853e+01 | -9.6760453873161822e+01 | -5.9833080525253969e+01
3.7273104164603168e+01 | -9.7106721823973174e+01 | -5.9833617659370006e+01
3.7628136147734693e+01 | -9.7462327054682319e+01 | -5.9834190906947626e+01
3.7993016396694571e+01 | -9.7827820080423990e+01 | -5.9834803683729419e+01
3.8368339898058608e+01 | -9.8203799719469615e+01 | -5.9835459821411007e+01
3.8754755026745258e+01 | -9.8590918656779451e+01 | -5.9836163630034193e+01
3.9152969834171266e+01 | -9.8989889805757571e+01 | -5.9836919971586305e+01
3.9563759259248812e+01 | -9.9401493606415286e+01 | -5.9837734347166474e+01
3.9987973425742545e+01 | -9.9826586426398904e+01 | -5.9838613000656359e+01
4.0426547223723276e+01 | -1.0026611026628845e+02 | -5.9839563042565175e+01
4.0880511415392419e+01 | -1.0072110401406040e+02 | -5.9840592598667982e+01
4.1351005558728581e+01 | -1.0119271654800365e+02 | -5.9841710989275064e+01
4.1839293109279524e+01 | -1.0168222205585003e+02 | -5.9842928946570510e+01
4.2346779145043399e+01 | -1.0219103802459102e+02 | -5.9844258879547624e+01
4.2875031267169760e+01 | -1.0272074646601131e+02 | -5.9845715198841546e+01
4.3425804367466426e+01 | -1.0327311908492311e+02 | -5.9847314717456683e+01
4.4001070132349746e+01 | -1.0385014728070212e+02 | -5.9849077148352372e+01
4.4603052385540643e+01 | -1.0445407811214932e+02 | -5.9851025726608675e+01
4.5234269677356252e+01 | -1.0508745767049416e+02 | -5.9853187993137908e+01
4.5897586933280841e+01 | -1.0575318372301572e+02 | -5.9855596789734882e+01
4.6596278515994911e+01 | -1.0645457004919960e+02 | -5.9858291533204692e+01
4.7334105786713884e+01 | -1.0719542564846937e+02 | -5.9861319861755483e+01
4.8115413251141852e+01 | -1.0798015303450708e+02 | -5.9864739783365231e+01
4.8945248756658245e+01 | -1.0881387126564195e+02 | -5.9868622508983705e+01
4.9829515140661343e+01 | -1.0970257137258466e+02 | -5.9873056231923314e+01
5.0775163473071558e+01 | -1.1065331470566277e+02 | -5.9878151232591208e+01
5.1790441986117258e+01 | -1.1167448885370212e+02 | -5.9884046867584857e+01
5.2885220565364243e+01 | -1.1277614184745481e+02 | -5.9890921282090567e+01
5.4071419286587471e+01 | -1.1397042441585100e+02 | -5.9899005129263529e+01
5.5363582559731725e+01 | -1.1527218386291806e+02 | -5.9908601303186330e+01
5.6779660729487659e+01 | -1.1669977462662712e+02 | -5.9920113897139458e+01
5.8342093214734277e+01 | -1.1827618487977486e+02 | -5.9934091665040583e+01
6.0079339852174428e+01 | -1.2003063477118619e+02 | -5.9951294919011758e+01
6.2028095480639905e+01 | -1.2200089697528328e+02 | -5.9972801494643377e+01
6.4236576403503818e+01 | -1.2423675659790713e+02 | -6.0000180194403313e+01
6.6769544806185053e+01 | -1.2680533045101882e+02 | -6.0035785644833766e+01
6.9716261037467618e+01 | -1.2979954331615312e+02 | -6.0083282278685502e+01
7.3203595207208807e+01 | -1.3335222096431073e+02 | -6.0148625757101925e+01
7.7418731192830123e+01 | -1.3766075276534335e+02 | -6.0242021572513224e+01
8.2650905900257754e+01 | -1.4303305751065975e+02 | -6.0382151610401991e+01
8.9374107272933827e+01 | -1.4998035082491191e+02 | -6.0606243551978082e+01
9.8427518553905855e+01 | -1.5942490398456408e+02 | -6.0997385430658227e+01
1.1146364064192321e+02 | -1.7323678362930701e+02 | -6.1773142987383807e+01
1.3228529819262826e+02 | -1.9594607524054595e+02 | -6.3660777047917691e+01
1.7212754699303082e+02 | -2.4252143733997647e+02 | -7.0393890346945653e+01
2.8180921183074804e+02 | -4.1715353428348033e+02 | -1.3534432245273229e+02
3.6387279887526114e+02 | -7.0867196238050474e+02 | -3.4479916350524360e+02
1.9573622120265645e+02 | -2.7272985285262604e+02 | -7.6993631649969586e+01
1.4312819062449012e+02 | -2.0806276814118723e+02 | -6.4934577516697118e+01
1.1823553789386735e+02 | -1.8044521124720308e+02 | -6.2209673353335731e+01
1.0350770950583575e+02 | -1.6470290290181552e+02 | -6.1195193395979771e+01
9.3671694522182037e+01 | -1.5438366100413342e+02 | -6.0711966481951379e+01
8.6589944774817425e+01 | -1.4703513038472605e+02 | -6.0445185609908620e+01
8.1224735768781940e+01 | -1.4150739489459687e+02 | -6.0282659125814931e+01
7.7008137351393543e+01 | -1.3718455813715050e+02 | -6.0176420785756960e+01
7.3601585970483143e+01 | -1.3370479039853112e+02 | -6.0103204428047974e+01
7.0789883974330053e+01 | -1.3084050862133708e+02 | -6.0050624647007027e+01
6.8429246494597081e+01 | -1.2844084572732183e+02 | -6.0011599232724748e+01
6.6419685388285671e+01 | -1.2640152707762779e+02 | -5.9981841689342119e+01
6.4689354734400638e+01 | -1.2464798955593650e+02 | -5.9958634821535867e+01
6.3185200733315860e+01 | -1.2312538952090689e+02 | -5.9940188787591033e+01
6.1867129650307874e+01 | -1.2179241542781998e+02 | -5.9925285777512102e+01
6.0704234650654925e+01 | -1.2061730855824047e+02 | -5.9913073907585542e+01
5.9672277154942449e+01 | -1.1957521995964447e+02 | -5.9902942804702022e+01
5.8751959516202085e+01 | -1.1864640539256358e+02 | -5.9894445876361495e+01
5.7927712068211939e+01 | -1.1781496234000326e+02 | -5.9887250271791324e+01
5.7186823444205956e+01 | -1.1706792725405850e+02 | -5.9881103809852547e+01
5.6518805374767972e+01 | -1.1639461797942255e+02 | -5.9875812604654577e+01
5.5914921006351328e+01 | -1.1578614661625711e+02 | -5.9871225609905785e+01
5.5367829393293754e+01 | -1.1523505313420407e+02 | -5.9867223740910312e+01
5.4871313918989330e+01 | -1.1473502600691221e+02 | -5.9863712087922877e+01
5.4420072278330416e+01 | -1.1428068653450896e+02 | -5.9860614256178543e+01
5.4009552242809264e+01 | -1.1386742043661474e+02 | -5.9857868193805473e+01
5.3635821906572652e+01 | -1.1349124498341428e+02 | -5.9855423076841625e+01
5.3295466204405166e+01 | -1.1314870316036961e+02 | -5.9853236955964441e+01
5.2985503661872471e+01 | -1.1283677862113514e+02 | -5.9851274959262668e+01
5.2703318880892269e+01 | -1.1255282678669451e+02 | -5.9849507905802241e+01
5.2446607375903369e+01 | -1.1229451860197769e+02 | -5.9847911226074316e+01
5.2213330186701086e+01 | -1.1205979430077353e+02 | -5.9846464114072447e+01
5.2001676292012604e+01 | -1.1184682514790128e+02 | -5.9845148855888681e+01
5.1810031293494553e+01 | -1.1165398158753732e+02 | -5.9843950294042763e+01
5.1636951175116458e+01 | -1.1147980657217943e+02 | -5.9842855397062969e+01
5.1481140197463503e+01 | -1.1132299310879006e+02 | -5.9841852911326555e+01
5.1341432181430640e+01 | -1.1118236525910027e+02 | -5.9840933077669625e+01
5.1216774586254857e+01 | -1.1105686198560483e+02 | -5.9840087399349969e+01
5.1106214903861968e+01 | -1.1094552335485760e+02 | -5.9839308450995631e+01
5.1008888983173136e+01 | -1.1084747870364050e+02 | -5.9838589720467368e+01
5.0924010970300500e+01 | -1.1076193644761051e+02 | -5.9837925477310009e+01
5.0850864607926908e+01 | -1.1068817527072862e+02 | -5.9837310662801713e+01
5.0788795682962679e+01 | -1.1062553648060397e+02 | -5.9836740797641291e+01
5.0737205448345534e+01 | -1.1057341735245710e+02 | -5.9836211904111565e+01
5.0695544874538655e+01 | -1.1053126531471976e+02 | -5.9835720440181106e+01
5.0663309610373581e+01 | -1.1049857285386855e+02 | -5.9835263243494971e+01
5.0640035552531458e+01 | -1.1047487303612699e+02 | -5.9834837483595535e+01
5.0625294939054584e+01 | -1.1045973556007226e+02 | -5.9834440621017677e+01
5.0618692895528511e+01 | -1.1045276326768000e+02 | -5.9834070372151487e+01
5.0619864373526681e+01 | -1.1045358905248749e+02 | -5.9833724678960806e+01
5.0628471429997717e+01 | -1.1046187311280336e+02 | -5.9833401682805643e+01
5.0644200803849785e+01 | -1.1047730050559434e+02 | -5.9833099701744558e+01
5.0666761752319061e+01 | -1.1049957896311702e+02 | -5.9832817210797955e+01
5.0695884115027269e+01 | -1.1052843693976628e+02 | -5.9832552824739011e+01
5.0731316578110807e+01 | -1.1056362186116010e+02 | -5.9832305283049294e+01
5.0772825114589104e+01 | -1.1060489855132083e+02 | -5.9832073436731726e+01
5.0820191580348904e+01 | -1.1065204781707421e+02 | -5.9831856236725301e+01
5.0873212447849838e+01 | -1.1070486517155187e+02 | -5.9831652723702035e+01
5.0931697661984913e+01 | -1.1076315968104517e+02 | -5.9831462019060254e+01
5.0995469604520963e+01 | -1.1082675292147863e+02 | -5.9831283316957666e+01
5.1064362155252148e+01 | -1.1089547803250035e+02 | -5.9831115877248202e+01
5.1138219839469116e+01 | -1.1096917885867747e+02 | -5.9830959019208350e+01
5.1216897052613447e+01 | -1.1104770916856617e+02 | -5.9830812115952725e+01
5.1300257354082426e+01 | -1.1113093194353652e+02 | -5.9830674589454098e+01
5.1388172823098145e+01 | -1.1121871872919276e+02 | -5.9830545906094613e+01
5.1480523470379637e+01 | -1.1131094904306369e+02 | -5.9830425572684049e+01
5.1577196700074694e+01 | -1.1140750983296421e+02 | -5.9830313132889515e+01
5.1678086817033730e+01 | -1.1150829498106344e+02 | -5.9830208164029713e+01
5.1783094575056026e+01 | -1.1161320484924700e+02 | -5.9830110274190972e+01
5.1892126762218467e+01 | -1.1172214586184791e+02 | -5.9830019099629439e+01
5.2005095819817328e+01 | -1.1183503012224416e+02 | -5.9829934302426835e+01
5.2121919491825210e+01 | -1.1195177506019729e+02 | -5.9829855568372082e+01
5.2242520502090592e+01 | -1.1207230310713523e+02 | -5.9829782605044635e+01
5.2366826256796259e+01 | -1.1219654139687371e+02 | -5.9829715140077454e+01
5.2494768569947652e+01 | -1.1232442148952869e+02 | -5.9829652919581036e+01
5.2626283409888046e+01 | -1.1245587911659966e+02 | -5.9829595706711615e+01
5.2761310665037598e+01 | -1.1259085394540584e+02 | -5.9829543280368242e+01
5.2899793927232196e+01 | -1.1272928936123887e+02 | -5.9829495434006674e+01
5.3041680291195547e+01 | -1.1287113226575285e+02 | -5.9829451974557301e+01
5.3186920168820642e+01 | -1.1301633289025797e+02 | -5.9829412721437329e+01
5.3335467117062308e+01 | -1.1316484462271119e+02 | -5.9829377505648878e+01
5.3487277678355781e+01 | -1.1331662384730760e+02 | -5.9829346168951815e+01
5.3642311232577555e+01 | -1.1347162979568628e+02 | -5.9829318563108728e+01
5.3800529859655597e+01 | -1.1362982440884608e+02 | -5.9829294549190479e+01
5.3961898212017587e+01 | -1.1379117220895833e+02 | -5.9829273996940742e+01
5.4126383396139175e+01 | -1.1395564018032992e+02 | -5.9829256784190747e+01
5.4293954862520735e+01 | -1.1412319765884341e+02 | -5.9829242796322674e+01
5.4464584303480180e+01 | -1.1429381622925533e+02 | -5.9829231925775147e+01
5.4638245558204105e+01 | -1.1446746962979219e+02 | -5.9829224071588087e+01
5.4814914524547532e+01 | -1.1464413366353077e+02 | -5.9829219138983234e+01
5.4994569077116921e+01 | -1.1482378611609420e+02 | -5.9829217038977276e+01
5.5177188991211651e+01 | -1.1500640667923717e+02 | -5.9829217688025523e+01
5.5362755872234800e+01 | -1.1519197687992650e+02 | -5.9829221007691700e+01
5.5551253090217699e+01 | -1.1538048001456174e+02 | -5.9829226924344042e+01
5.5742665719132503e+01 | -1.1557190108800611e+02 | -5.9829235368873611e+01
5.5936980480694729e+01 | -1.1576622675712915e+02 | -5.9829246276434418e+01
5.6134185692382822e+01 | -1.1596344527858486e+02 | -5.9829259586202035e+01
5.6334271219424252e+01 | -1.1616354646057626e+02 | -5.9829275241152004e+01
5.6537228430519370e+01 | -1.1636652161837193e+02 | -5.9829293187852564e+01
5.6743050157093037e+01 | -1.1657236353336759e+02 | -5.9829313376274555e+01
5.6951730655881725e+01 | -1.1678106641549630e+02 | -5.9829335759614573e+01
5.7163265574680260e+01 | -1.1699262586881102e+02 | -5.9829360294130758e+01
5.7377651921087192e+01 | -1.1720703886007993e+02 | -5.9829386938992741e+01
5.7594888034101800e+01 | -1.1742430369024201e+02 | -5.9829415656140213e+01
5.7814973558438119e+01 | -1.1764441996859226e+02 | -5.9829446410154141e+01
5.8037909421434001e+01 | -1.1786738858957092e+02 | -5.9829479168136920e+01
5.8263697812443198e+01 | -1.1809321171204468e+02 | -5.9829513899601480e+01
5.8492342164609461e+01 | -1.1832189274097921e+02 | -5.9829550576369748e+01
5.8723847138931163e+01 | -1.1855343631140923e+02 | -5.9829589172478066e+01
5.8958218610533223e+01 | -1.1878784827462434e+02 | -5.9829629664091115e+01
5.9195463657072082e+01 | -1.1902513568649434e+02 | -5.9829672029422255e+01
5.9435590549207618e+01 | -1.1926530679786867e+02 | -5.9829716248661057e+01
5.9678608743081931e+01 | -1.1950837104698827e+02 | -5.9829762303906342e+01
5.9924528874753783e+01 | -1.1975433905386002e+02 | -5.9829810179106239e+01
6.0173362756542538e+01 | -1.2000322261654580e+02 | -5.9829859860003261e+01
6.0425123375242869e+01 | -1.2025503470932776e+02 | -5.9829911334084890e+01
6.0679824892177024e+01 | -1.2050978948271646e+02 | -5.9829964590539433e+01
6.0937482645057273e+01 | -1.2076750226527379e+02 | -5.9830019620216518e+01
6.1198113151637173e+01 | -1.2102818956723002e+02 | -5.9830076415592842e+01
6.1461734115135123e+01 | -1.2129186908587765e+02 | -5.9830134970742527e+01
6.1728364431419834e+01 | -1.2155855971273093e+02 | -5.9830195281311092e+01
6.1998024197951509e+01 | -1.2182828154244613e+02 | -5.9830257344494626e+01
6.2270734724478515e+01 | -1.2210105588350191e+02 | -5.9830321159023399e+01
6.2546518545494067e+01 | -1.2237690527064225e+02 | -5.9830386725148188e+01
6.2825399434462085e+01 | -1.2265585347909466e+02 | -5.9830454044632575e+01
6.3107402419827324e+01 | -1.2293792554057501e+02 | -5.9830523120747685e+01
6.3392553802828949e+01 | -1.2322314776110088e+02 | -5.9830593958271926e+01
6.3680881177142332e+01 | -1.2351154774063670e+02 | -5.9830666563494368e+01
6.3972413450379094e+01 | -1.2380315439460142e+02 | -5.9830740944222327e+01
6.4267180867480562e+01 | -1.2409799797727312e+02 | -5.9830817109792562e+01
6.4565215036045032e+01 | -1.2439611010713215e+02 | -5.9830895071087113e+01
6.4866548953635146e+01 | -1.2469752379418769e+02 | -5.9830974840552543e+01
6.5171217037117316e+01 | -1.2500227346934193e+02 | -5.9831056432224614e+01
6.5479255154090978e+01 | -1.2531039501584723e+02 | -5.9831139861756256e+01
6.5790700656472268e+01 | -1.2562192580292204e+02 | -5.9831225146449768e+01
6.6105592416302102e+01 | -1.2593690472159740e+02 | -5.9831312305295299e+01
6.6423970863857377e+01 | -1.2625537222286910e+02 | -5.9831401359011721e+01
6.6745878028148809e+01 | -1.2657737035824331e+02 | -5.9831492330094505e+01
6.7071357579899342e+01 | -1.2690294282276706e+02 | -5.9831585242867718e+01
6.7400454877102646e+01 | -1.2723213500064438e+02 | -5.9831680123541730e+01
6.7733217013271727e+01 | -1.2756499401354777e+02 | -5.9831777000276048e+01
6.8069692868495707e+01 | -1.2790156877174512e+02 | -5.9831875903249411e+01
6.8409933163433593e+01 | -1.2824191002816804e+02 | -5.9831976864734443e+01
6.8753990516383496e+01 | -1.2858607043556424e+02 | -5.9832079919180742e+01
6.9101919503577420e+01 | -1.2893410460688108e+02 | -5.9832185103303658e+01
6.9453776722864518e+01 | -1.2928606917904571e+02 | -5.9832292456181193e+01
6.9809620860957239e+01 | -1.2964202288031615e+02 | -5.9832402019358909e+01
7.0169512764430706e+01 | -1.3000202660139419e+02 | -5.9832513836963486e+01
7.0533515514679124e+01 | -1.3036614347050417e+02 | -5.9832627955825046e+01
7.0901694507050991e+01 | -1.3073443893266048e+02 | -5.9832744425609491e+01
7.1274117534401483e+01 | -1.3110698083336277e+02 | -5.9832863298961286e+01
7.1650854875320221e+01 | -1.3148383950697831e+02 | -5.9832984631658093e+01
7.2031979387313783e+01 | -1.3186508787009018e+02 | -5.9833108482776396e+01
7.2417566605244829e+01 | -1.3225080152011620e+02 | -5.9833234914871369e+01
7.2807694845354405e+01 | -1.3264105883952524e+02 | -5.9833363994170838e+01
7.3202445315221297e+01 | -1.3303594110600503e+02 | -5.9833495790783729e+01
7.3601902230042214e+01 | -1.3343553260896832e+02 | -5.9833630378926102e+01
7.4006152935647663e+01 | -1.3383992077281232e+02 | -5.9833767837164658e+01
7.4415288038705427e+01 | -1.3424919628738573e+02 | -5.9833908248680302e+01
7.4829401544600358e+01 | -1.3466345324615332e+02 | -5.9834051701552966e+01
7.5248591003523615e+01 | -1.3508278929259231e+02 | -5.9834198289068695e+01
7.5672957665349173e+01 | -1.3550730577540330e+02 | -5.9834348110054123e+01
7.6102606643928283e+01 | -1.3593710791316434e+02 | -5.9834501269236057e+01
7.6537647091488083e+01 | -1.3637230496912224e+02 | -5.9834657877634157e+01
7.6978192383882913e+01 | -1.3681301043686742e+02 | -5.9834818052984502e+01
7.7424360317516019e+01 | -1.3725934223771640e+02 | -5.9834981920200377e+01
7.7876273318824445e+01 | -1.3771142293069803e+02 | -5.9835149611873589e+01
7.8334058667304632e+01 | -1.3816937993612319e+02 | -5.9835321268818561e+01
7.8797848733148783e+01 | -1.3863334577381485e+02 | -5.9835497040666070e+01
7.9267781230665719e+01 | -1.3910345831717478e+02 | -5.9835677086509065e+01
7.9743999488773852e+01 | -1.3957986106438261e+02 | -5.9835861575608760e+01
8.0226652739982995e+01 | -1.4006270342814696e+02 | -5.9836050688163965e+01
8.0715896429422486e+01 | -1.4055214104557726e+02 | -5.9836244616154772e+01
8.1211892545632452e+01 | -1.4104833610989689e+02 | -5.9836443564264442e+01
8.1714809975013026e+01 | -1.4155145772590456e+02 | -5.9836647750891530e+01
8.2224824882023754e+01 | -1.4206168229128278e+02 | -5.9836857409259025e+01
8.2742121117448946e+01 | -1.4257919390608478e+02 | -5.9837072788635837e+01
8.3266890657294880e+01 | -1.4310418481297367e+02 | -5.9837294155678791e+01
8.3799334075165007e+01 | -1.4363685587107904e+02 | -5.9837521795914029e+01
8.4339661051277801e+01 | -1.4417741706664808e+02 | -5.9837756015370275e+01
8.4888090921648114e+01 | -1.4472608806403406e+02 | -5.9837997142385944e+01
8.5444853271359079e+01 | -1.4528309880096779e+02 | -5.9838245529608713e+01
8.6010188576308238e+01 | -1.4584869013252219e+02 | -5.9838501556213956e+01
8.6584348898333616e+01 | -1.4642311452870106e+02 | -5.9838765630367448e+01
8.7167598639216436e+01 | -1.4700663683118427e+02 | -5.9839038191967830e+01
8.7760215359731390e+01 | -1.4759953507543227e+02 | -5.9839319715700881e+01
8.8362490670686441e+01 | -1.4820210138513792e+02 | -5.9839610714451481e+01
8.8974731203775576e+01 | -1.4881464294689516e+02 | -5.9839911743119586e+01
8.9597259671078291e+01 | -1.4943748307397624e+02 | -5.9840223402897948e+01
9.0230416023204356e+01 | -1.5007096236928029e+02 | -5.9840546346075939e+01
9.0874558717419447e+01 | -1.5071543999886367e+02 | -5.9840881281444226e+01
9.1530066108637783e+01 | -1.5137129508902947e+02 | -5.9841228980391691e+01
9.2197337977958782e+01 | -1.5203892826175328e+02 | -5.9841590283794503e+01
9.2876797215506656e+01 | -1.5271876332532617e+02 | -5.9841966109819509e+01
9.3568891676755385e+01 | -1.5341124913953880e+02 | -5.9842357462783411e+01
9.4274096234351205e+01 | -1.5411686167758828e+02 | -5.9842765443237070e+01
9.4992915050756693e+01 | -1.5483610631022557e+02 | -5.9843191259468881e+01
9.5725884100932461e+01 | -1.5556952034159727e+02 | -5.9843636240664807e+01
9.6473573978855370e+01 | -1.5631767583085829e+02 | -5.9844101852002922e+01
9.7236593027090166e+01 | -1.5708118273910392e+02 | -5.9844589712013757e+01
9.8015590835054184e+01 | -1.5786069244766301e+02 | -5.9845101612608829e+01
9.8811262159261389e+01 | -1.5865690170151208e+02 | -5.9845639542250694e+01
9.9624351327959971e+01 | -1.5947055704081023e+02 | -5.9846205712850264e+01
1.0045565720352380e+02 | -1.6030245979460926e+02 | -5.9846802591085464e+01
1.0130603878913125e+02 | -1.6115347172412928e+02 | -5.9847432934998025e+01
1.0217642158218391e+02 | -1.6202452141909430e+02 | -5.9848099836910393e+01
1.0306780479624044e+02 | -1.6291661157017961e+02 | -5.9848806773939174e+01
1.0398126959679581e+02 | -1.6383082726448413e+02 | -5.9849557667688316e+01
1.0491798852509184e+02 | -1.6476834548016672e+02 | -5.9850356955074872e+01
1.0587923631966105e+02 | -1.6573044599238733e+02 | -5.9851209672726284e+01
1.0686640238925332e+02 | -1.6671852394726221e+02 | -5.9852121558008889e+01
1.0788100524546593e+02 | -1.6773410441599924e+02 | -5.9853099170533312e+01
1.0892470927179832e+02 | -1.6877885931082548e+02 | -5.9854150039027161e+01
1.0999934429195238e+02 | -1.6985462713175588e+02 | -5.9855282839803493e+01
1.1110692850925646e+02 | -1.7096343612409677e+02 | -5.9856507614840311e+01
1.1224969552816515e+02 | -1.7210753156799956e+02 | -5.9857836039834410e+01
1.1343012634739205e+02 | -1.7328940810314126e+02 | -5.9859281755749208e+01
1.1465098744533913e+02 | -1.7451184822697280e+02 | -5.9860860781633676e+01
1.1591537637991401e+02 | -1.7577796841218509e+02 | -5.9862592032271081e+01
1.1722677672132338e+02 | -1.7709127469352154e+02 | -5.9864497972198166e+01
1.1858912466271188e+02 | -1.7845573011140795e+02 | -5.9866605448696063e+01
1.2000689035883605e+02 | -1.7987583712076508e+02 | -5.9868946761929038e+01
1.2148517799804699e+02 | -1.8135673905059051e+02 | -5.9871561052543512e+01
1.2302984992057004e+02 | -1.8290434603952653e+02 | -5.9874496118956486e+01
1.2464768190810199e+02 | -1.8452549273129279e+02 | -5.9877810823190799e+01
1.2634655931312835e+02 | -1.8622813762641806e+02 | -5.9881578313289708e+01
1.2813572731640210e+02 | -1.8802161771105540e+02 | -5.9885890394653302e+01
1.3002611383211001e+02 | -1.8991697737481562e+02 | -5.9890863542705603e+01
1.3203075126522765e+02 | -1.9192739856501206e+02 | -5.9896647299784405e+01
1.3416533482150544e+02 | -1.9406877102094097e+02 | -5.9903436199435532e+01
1.3644897261257580e+02 | -1.9636045962871361e+02 | -5.9911487016137812e+01
1.3890521016126198e+02 | -1.9882635439900704e+02 | -5.9921144237745068e+01
1.4156345564787046e+02 | -2.0149633420483798e+02 | -5.9932878556967523e+01
1.4446100407861613e+02 | -2.0440835064485182e+02 | -5.9947346566235694e+01
1.4764598024505636e+02 | -2.0761146635326651e+02 | -5.9965486108210143e+01
1.5118173378077074e+02 | -2.1117040759986398e+02 | -5.9988673819093236e+01
1.5515360924041090e+02 | -2.1517260507522775e+02 | -6.0018995834816849e+01
1.5967975901005499e+02 | -2.1973949383919748e+02 | -6.0059734829142485e+01
1.6492917025913539e+02 | -2.2504546581692691e+02 | -6.0116295557791517e+01
1.7115331364948972e+02 | -2.3135139799940427e+02 | -6.0198084349914552e+01
1.7874535595672023e+02 | -2.3906800878915718e+02 | -6.0322652832436944e+01
1.8836020785486417e+02 | -2.4888605171992839e+02 | -6.0525843865064218e+01
2.0118483602454000e+02 | -2.6207517684844140e+02 | -6.0890340823901397e+01
2.1964096270047349e+02 | -2.8128425350682625e+02 | -6.1643290806352752e+01
2.4964032219162971e+02 | -3.1324635457951285e+02 | -6.3606032387883147e+01
3.1080929397020839e+02 | -3.8254305217885150e+02 | -7.1733758208643110e+01
5.2473142363063153e+02 | -7.4228607528822999e+02 | -2.1755465165759847e+02
4.6321435619168602e+02 | -6.0471115430679095e+02 | -1.4149679811510492e+02
3.0110780904100250e+02 | -3.7038728318688698e+02 | -6.9279474145884478e+01
2.5048935383351929e+02 | -3.1361953717314992e+02 | -6.3130183339630634e+01
2.2575245709439420e+02 | -2.8723825385333959e+02 | -6.1485796758945384e+01
2.1118591147116786e+02 | -2.7201218842120250e+02 | -6.0826276950034639e+01
2.0175092475640750e+02 | -2.6225066321668794e+02 | -6.0499738460280440e+01
1.9531301094135597e+02 | -2.5562886528554512e+02 | -6.0315854344189148e+01
1.9080488170396171e+02 | -2.5100792307442688e+02 | -6.0203041370465172e+01
1.8763055044397055e+02 | -2.4776013587550892e+02 | -6.0129585431538374e+01
1.8542994516540617e+02 | -2.4550966570372810e+02 | -6.0079720538321936e+01
1.8397235880487042e+02 | -2.4401726918024457e+02 | -6.0044910375374144e+01
1.8310311360793571e+02 | -2.4312333409846462e+02 | -6.0020220490528914e+01
1.8271469540121672e+02 | -2.4271734427423806e+02 | -6.0002648873021343e+01
1.8273011102810568e+02 | -2.4272040523937093e+02 | -5.9990294211265251e+01
1.8309276297211176e+02 | -2.4307467674952360e+02 | -5.9981913777411847e+01
1.8375998268605946e+02 | -2.4373665789299886e+02 | -5.9976675206939404e+01
1.8469870129411598e+02 | -2.4467271148294591e+02 | -5.9974010188829936e+01
1.8588240531232009e+02 | -2.4585592937875333e+02 | -5.9973524066433242e+01
1.8728887911991774e+02 | -2.4726381616904530e+02 | -5.9974937049127561e+01
1.8889843438554067e+02 | -2.4887647792969395e+02 | -5.9978043544153280e+01
1.9069244626196425e+02 | -2.5067512805213195e+02 | -5.9982681790167703e+01
1.9265209640070395e+02 | -2.5264080555319114e+02 | -5.9988709152487189e+01
1.9475728521691377e+02 | -2.5475326564615460e+02 | -5.9995980429240831e+01
1.9698573202632582e+02 | -2.5699006003831011e+02 | -6.0004328011984285e+01
1.9931233626026898e+02 | -2.5932588038326855e+02 | -6.0013544122999576e+01
2.0170892335113354e+02 | -2.6173229012015702e+02 | -6.0023366769023482e+01
2.0414453416221349e+02 | -2.6417800658218812e+02 | -6.0033472419974629e+01
2.0658641787034765e+02 | -2.6662989723237916e+02 | -6.0043479362031519e+01
2.0900183205248902e+02 | -2.6905479759180184e+02 | -6.0052965539312822e+01
2.1136062508859942e+02 | -2.7142212788875855e+02 | -6.0061502800159133e+01
2.1363838450230315e+02 | -2.7370709007595718e+02 | -6.0068705573654029e+01
2.1581972922480725e+02 | -2.7589401616019990e+02 | -6.0074286935392649e+01
2.1790118740652215e+02 | -2.7797929822277047e+02 | -6.0078110816248312e+01
2.1989311897413481e+02 | -2.7997334724821110e+02 | -6.0080228274076291e+01
2.2182034782502072e+02 | -2.8190123753204676e+02 | -6.0080889707026046e+01
2.2372151135017646e+02 | -2.8380204402260176e+02 | -6.0080532672425306e+01
2.2564749513060525e+02 | -2.8572724861845342e+02 | -6.0079753487848166e+01
2.2765957467740196e+02 | -2.8773885139829093e+02 | -6.0079276720888970e+01
2.2982797593639691e+02 | -2.8990791460444763e+02 | -6.0079938668050715e+01
2.3223152559677749e+02 | -2.9231422600005175e+02 | -6.0082700403274259e+01
2.3495899227651427e+02 | -2.9504769872856622e+02 | -6.0088706452051952e+01
2.3811274872038763e+02 | -2.9821216009768233e+02 | -6.0099411377294700e+01
2.4181565532732708e+02 | -3.0193247074659945e+02 | -6.0116815419272370e+01
2.4622277893675874e+02 | -3.0636667446153416e+02 | -6.0143895524775417e+01
2.5154112826472380e+02 | -3.1172655229541209e+02 | -6.0185424030688296e+01
2.5806400932410907e+02 | -3.1831363985059608e+02 | -6.0249630526487010e+01
2.6623455972267482e+02 | -3.2658644203941134e+02 | -6.0351882316736521e+01
2.7677342285047484e+02 | -3.3729720904303332e+02 | -6.0523786192558475e+01
2.9096502159930873e+02 | -3.5180422223053722e+02 | -6.0839200631228493e+01
3.1140280675663462e+02 | -3.7290800308431778e+02 | -6.1505196327683166e+01
3.4440340956870011e+02 | -4.0769865489127011e+02 | -6.3295245322569997e+01
4.1122186042238206e+02 | -4.8238522349387318e+02 | -7.1163363071491119e+01
6.5075612452185487e+02 | -8.9787706648746166e+02 | -2.4712094196560679e+02
5.5262782913283877e+02 | -6.7425203338258541e+02 | -1.2162420424974664e+02
4.1182688769063606e+02 | -4.7995469759026946e+02 | -6.8127809899633405e+01
3.7658607317641611e+02 | -4.4045188197361404e+02 | -6.3865808797197928e+01
3.7364640081272114e+02 | -4.3779735184464027e+02 | -6.4150951031919135e+01
4.0029820173270696e+02 | -4.6998090344647744e+02 | -6.9682701713770484e+01
5.0827636224796350e+02 | -6.4511503816413358e+02 | -1.3683867591617008e+02
5.6318321661890911e+02 | -8.2427747783276504e+02 | -2.6109426121385593e+02
3.9688420511590448e+02 | -4.7005530277408116e+02 | -7.3171097658176677e+01
3.4377342141055226e+02 | -4.0763696129826718e+02 | -6.3863539887714921e+01
3.1765290308893543e+02 | -3.7940800060956491e+02 | -6.1755097520629477e+01
3.0189674717661137e+02 | -3.6287399908246260e+02 | -6.0977251905851233e+01
2.9136678601144791e+02 | -3.5197815514089206e+02 | -6.0611369129444142e+01
2.8391597052879786e+02 | -3.4432845372352671e+02 | -6.0412483194728850e+01
2.7846883950347541e+02 | -3.3876248954782830e+02 | -6.0293650044352887e+01
2.7441773592045718e+02 | -3.3463559219917533e+02 | -6.0217856278718159e+01
2.7138861504464592e+02 | -3.3155582676712686e+02 | -6.0167211722480943e+01
2.6913609230586457e+02 | -3.2926830902088562e+02 | -6.0132216715021059e+01
2.6749117202654168e+02 | -3.2759861956204747e+02 | -6.0107447535505798e+01
2.6633303988405828e+02 | -3.2642266433459821e+02 | -6.0089624450539930e+01
2.6557285997724705e+02 | -3.2564953054001779e+02 | -6.0076670562770744e+01
2.6514399601690229e+02 | -3.2521121726446438e+02 | -6.0067221247562088e+01
2.6499587192540872e+02 | -3.2505622583833076e+02 | -6.0060353912922039e+01
2.6508999333153213e+02 | -3.2514542548174711e+02 | -6.0055432150214983e+01
2.6539730361239265e+02 | -3.2544931597096502e+02 | -6.0052012358572370e+01
2.6589639301531844e+02 | -3.2594617903592348e+02 | -6.0049786020605040e+01
2.6657227148329042e+02 | -3.2662081464482668e+02 | -6.0048543161536259e+01
2.6741552817190291e+02 | -3.2746367710241958e+02 | -6.0048148930516675e+01
2.6842176962787141e+02 | -3.2847029836086034e+02 | -6.0048528732988927e+01
2.6959127309944625e+02 | -3.2964093244437271e+02 | -6.0049659344926454e+01
2.7092882172902443e+02 | -3.3098038639230231e+02 | -6.0051564663277873e+01
2.7244371029459518e+02 | -3.3249802586177316e+02 | -6.0054315567177980e+01
2.7414992729619519e+02 | -3.3420796129583499e+02 | -6.0058033999639804e+01
2.7606653391610121e+02 | -3.3612943589486076e+02 | -6.0062901978759555e+01
2.7821827446861016e+02 | -3.3828745141024848e+02 | -6.0069176941638318e+01
2.8063646772093716e+02 | -3.4071368348273154e+02 | -6.0077215761794378e+01
2.8336024471315125e+02 | -3.4344775587836267e+02 | -6.0087511165211424e+01
2.8643821616470848e+02 | -3.4653896257151331e+02 | -6.0100746406804831e+01
2.8993066843717463e+02 | -3.5004854586660849e+02 | -6.0117877429433861e+01
2.9391239258124295e+02 | -3.5405264960574641e+02 | -6.0140257024503455e+01
2.9847622373354784e+02 | -3.5864604746951130e+02 | -6.0169823735963462e+01
3.0373725452193639e+02 | -3.6394664496877658e+02 | -6.0209390446840189e+01
3.0983736461380988e+02 | -3.7010044829015220e+02 | -6.0263083676342319e+01
3.1694891501199589e+02 | -3.7728591399268402e+02 | -6.0336998980688122e+01
3.2527465472749941e+02 | -3.8571478014759941e+02 | -6.0440125420100003e+01
3.3503714175159962e+02 | -3.9562261142000472e+02 | -6.0585469668405096e+01
3.4644426016291266e+02 | -4.0723511091932608e+02 | -6.0790850756413420e+01
3.5960924483431916e+02 | -4.2068682398764730e+02 | -6.1077579153328145e+01
3.7440831302174365e+02 | -4.3587123624783766e+02 | -6.1462923226094006e+01
3.9032521349976525e+02 | -4.5226706198183035e+02 | -6.1941848482065097e+01
4.0653420060971877e+02 | -4.6900214627712353e+02 | -6.2467945667404763e+01
4.2274328917629538e+02 | -4.8573254421829131e+02 | -6.2989255041995932e+01
4.4143099076899534e+02 | -5.0510701296318712e+02 | -6.3676022194191773e+01
4.7403461166029422e+02 | -5.4024253297157247e+02 | -6.6207921311278255e+01
5.8241371011547710e+02 | -6.8708396775365986e+02 | -1.0467025763818276e+02
6.3444532980304291e+02 | -8.0674526635214306e+02 | -1.7229993654910015e+02
4.6310959659310862e+02 | -5.2983529528785539e+02 | -6.6725698694746768e+01
4.1165912107569363e+02 | -4.7400894729907469e+02 | -6.2349826223381058e+01
3.8488371735145483e+02 | -4.4621328509413348e+02 | -6.1329567742678648e+01
3.6763252410876589e+02 | -4.2853576956211310e+02 | -6.0903245453347211e+01
3.5538843677626073e+02 | -4.1605912922915860e+02 | -6.0670692452897867e+01
3.4626959494387029e+02 | -4.0679611667793364e+02 | -6.0526521734063351e+01
3.3931474023161371e+02 | -3.9974629225619333e+02 | -6.0431552024579616e+01
3.3395921594385084e+02 | -3.9432671536498844e+02 | -6.0367499421137609e+01
3.2983556307038668e+02 | -3.9015994392008429e+02 | -6.0324380849697604e+01
3.2668566807497501e+02 | -3.8698175714561404e+02 | -6.0296089070639027e+01
3.2431840269904103e+02 | -3.8459695400316144e+02 | -6.0278551304120413e+01
3.2258873436008241e+02 | -3.8285761089123685e+02 | -6.0268876531154433e+01
3.2138849131063955e+02 | -3.8165344752922448e+02 | -6.0264956218584928e+01
3.2064440661568744e+02 | -3.8090972513045807e+02 | -6.0265318514770627e+01
3.2032146760430021e+02 | -3.8059062989103302e+02 | -6.0269162286732808e+01
3.2043110011014710e+02 | -3.8070766697815122e+02 | -6.0276566868004124e+01
3.2104548096953658e+02 | -3.8133443930734393e+02 | -6.0288958337807344e+01
3.2232249963959396e+02 | -3.8263260171259975e+02 | -6.0310102073005794e+01
3.2455296600029317e+02 | -3.8490137983753453e+02 | -6.0348413837241367e+01
3.2825937353657173e+02 | -3.8868242903961135e+02 | -6.0423055503039620e+01
3.3442719494910517e+02 | -3.9500986966814332e+02 | -6.0582674719038152e+01
3.4513145028874970e+02 | -4.0610798601640880e+02 | -6.0976535727659098e+01
3.6564448541982927e+02 | -4.2787398150205922e+02 | -6.2229496082229957e+01
4.1462431206232316e+02 | -4.8371476402739029e+02 | -6.9090451965067132e+01
6.0732426770195025e+02 | -9.3268305020079356e+02 | -3.2535878249884331e+02
4.7955164622135339e+02 | -5.7471466719497789e+02 | -9.5163020973624498e+01
3.7863723864084363e+02 | -4.4293458207886169e+02 | -6.4297343438018061e+01
3.4246732067312320e+02 | -4.0385402379542018e+02 | -6.1386703122296979e+01
3.2319368013777000e+02 | -3.8384174185718149e+02 | -6.0648061719411487e+01
3.1083717054836535e+02 | -3.7120602060895624e+02 | -6.0368850060590887e+01
3.0204555277253007e+02 | -3.6228265027039805e+02 | -6.0237097497867978e+01
2.9536349780661874e+02 | -3.5552893073723590e+02 | -6.0165432930617158e+01
2.9004833561231470e+02 | -3.5017078863730160e+02 | -6.0122453024986896e+01
2.8567514386729204e+02 | -3.4576995411453453e+02 | -6.0094810247242492e+01
2.8197869080336113e+02 | -3.4205477335509300e+02 | -6.0076082551731872e+01
2.7878171024631604e+02 | -3.3884457111412945e+02 | -6.0062860867813413e+01
2.7595930703291623e+02 | -3.3601248948642029e+02 | -6.0053182453504064e+01
2.7342012029095758e+02 | -3.3346595953818593e+02 | -6.0045839247228344e+01
2.7109587233522257e+02 | -3.3113592125240399e+02 | -6.0040048917181423e+01
2.6893532886126638e+02 | -3.2897061779491139e+02 | -6.0035288933645006e+01
2.6690062760928129e+02 | -3.2693183588165857e+02 | -6.0031208272377285e+01
2.6496485998024241e+02 | -3.2499243728919890e+02 | -6.0027577308956495e+01
2.6311028005044568e+02 | -3.2313453668619439e+02 | -6.0024256635748714e+01
2.6132680080292005e+02 | -3.2134797599455737e+02 | -6.0021175191637326e+01
2.5961061546864397e+02 | -3.1962892855815045e+02 | -6.0018313089506478e+01
2.5796289324159193e+02 | -3.1797858045004369e+02 | -6.0015687208451766e+01
2.5638856176680451e+02 | -3.1640190076389882e+02 | -6.0013338997094309e+01
2.5489521554296007e+02 | -3.1490654006252413e+02 | -6.0011324519564056e+01
2.5349219072953321e+02 | -3.1350189762037797e+02 | -6.0009706890844768e+01
2.5218983366649016e+02 | -3.1219838479867298e+02 | -6.0008551132182816e+01
2.5099897214694175e+02 | -3.1100689344739845e+02 | -6.0007921300456701e+01
2.4993058187909611e+02 | -3.0993846148909643e+02 | -6.0007879610000316e+01
2.4899562928974726e+02 | -3.0900411650399002e+02 | -6.0008487214242763e+01
2.4820506691205799e+02 | -3.0821487326240060e+02 | -6.0009806350342615e+01
2.4756995847307999e+02 | -3.0758186212999055e+02 | -6.0011903656910562e+01
2.4710171619029967e+02 | -3.0711657082688851e+02 | -6.0014854636588836e+01
2.4681244152151584e+02 | -3.0683119096850930e+02 | -6.0018749446993468e+01
2.4671537206372645e+02 | -3.0673907254432027e+02 | -6.0023700480593817e+01
2.4682545168480297e+02 | -3.0685530426524844e+02 | -6.0029852580445464e+01
2.4716005962613951e+02 | -3.0719745694880891e+02 | -6.0037397322669392e+01
2.4773996011336504e+02 | -3.0778655385701740e+02 | -6.0046593743652352e+01
2.4859057228158696e+02 | -3.0864837179411023e+02 | -6.0057799512523275e+01
2.4974372059663756e+02 | -3.0981524005310433e+02 | -6.0071519456466774e+01
2.5124012623971180e+02 | -3.1132861001608467e+02 | -6.0088483776372868e+01
2.5313307429182998e+02 | -3.1324285317521520e+02 | -6.0109778883385218e+01
2.5549400866281820e+02 | -3.1563108414114259e+02 | -6.0137075478324391e+01
2.5842141189962820e+02 | -3.1859445736135325e+02 | -6.0173045461725053e+01
2.6205554703170071e+02 | -3.2227771487403152e+02 | -6.0222167842330805e+01
2.6660426170053552e+02 | -3.2689665703115782e+02 | -6.0292395330622298e+01
2.7239115002886376e+02 | -3.3279005064742290e+02 | -6.0398900618559139e+01
2.7995295905121139e+02 | -3.4052640043480233e+02 | -6.0573441383590932e+01
2.9025820526271650e+02 | -3.5114951252333293e+02 | -6.0891307260616429e+01
3.0527230514138733e+02 | -3.6683803212366678e+02 | -6.1565726982279443e+01
3.2974976423124201e+02 | -3.9314421682651471e+02 | -6.3394452595272696e+01
3.7908726683971895e+02 | -4.5045827707562449e+02 | -7.1371010235905544e+01
5.3410530892520910e+02 | -7.4998915788265231e+02 | -2.1588384895744321e+02
4.9752749056881032e+02 | -6.4273093064337843e+02 | -1.4520344007456811e+02
3.7543227982930972e+02 | -4.4456437725303800e+02 | -6.9132097423728283e+01
3.3627702493900546e+02 | -3.9934804546502369e+02 | -6.3071020526018231e+01
3.1830687445853880e+02 | -3.7987781023554516e+02 | -6.1570935777006355e+01
3.0900281864454973e+02 | -3.7002371751763599e+02 | -6.1020898873086253e+01
3.0434623413409497e+02 | -3.6512835921986954e+02 | -6.0782125085774567e+01
3.0269378912125535e+02 | -3.6337001784194314e+02 | -6.0676228720687789e+01
3.0330164120892493e+02 | -3.6394163539841509e+02 | -6.0639994189490153e+01
3.0585349590151560e+02 | -3.6650221251753436e+02 | -6.0648716616018760e+01
3.1028963542661160e+02 | -3.7098394165215450e+02 | -6.0694306225542903e+01
3.1675589109745999e+02 | -3.7753485496343558e+02 | -6.0778963865975584e+01
3.2562560070193916e+02 | -3.8654139439646656e+02 | -6.0915793694527395e+01
3.3760568869183805e+02 | -3.9874257854679115e+02 | -6.1136889854953097e+01
3.5400915316081455e+02 | -4.1552877754041901e+02 | -6.1519624379604466e+01
3.7747899196887658e+02 | -4.3975818826711111e+02 | -6.2279196298234524e+01
4.1430958729567209e+02 | -4.7851029572712281e+02 | -6.4200708431450721e+01
4.8496713298399675e+02 | -5.5706590664926728e+02 | -7.2098773665270528e+01
7.1618781811247982e+02 | -9.3704938759203731e+02 | -2.2086156947955749e+02
6.6339131861523663e+02 | -7.9924676689563273e+02 | -1.3585544828039610e+02
5.3289563660014528e+02 | -6.0395981088109329e+02 | -7.1064174280948009e+01
5.2513262760660496e+02 | -5.9277763863131963e+02 | -6.7645011024714677e+01
5.5560719987385619e+02 | -6.2599906652123309e+02 | -7.0391866647376901e+01
5.8437494810708290e+02 | -6.5727932772521160e+02 | -7.2904379618128701e+01
6.0149519274277804e+02 | -6.7431829431865322e+02 | -7.2823101575875171e+01
7.3370564832584319e+02 | -8.5676780091931187e+02 | -1.2306215259346868e+02
7.5859712411985458e+02 | -9.1501049212590965e+02 | -1.5641336800605507e+02
5.5467600138853641e+02 | -6.2522397063706603e+02 | -7.0547969248529625e+01
5.0046189460231483e+02 | -5.6754401375972827e+02 | -6.7082119157413445e+01
4.6807791681929677e+02 | -5.3425373892694518e+02 | -6.6175822107648401e+01
4.3611965001491359e+02 | -5.0098389486690832e+02 | -6.4864244851994727e+01
4.0494974702757975e+02 | -4.6846462269999677e+02 | -6.3514875672417020e+01
3.7880790440519763e+02 | -4.4138738463598912e+02 | -6.2579480230791489e+01
3.5931549710243576e+02 | -4.2139292188368950e+02 | -6.2077424781253740e+01
3.4650465989631363e+02 | -4.0843014945106955e+02 | -6.1925489554755927e+01
3.4048660202797220e+02 | -4.0260458409020742e+02 | -6.2117982062235228e+01
3.4260695113495365e+02 | -4.0544782192375601e+02 | -6.2840870788802363e+01
3.5749733493254905e+02 | -4.2239307738453977e+02 | -6.4895742451990714e+01
4.0145261514024355e+02 | -4.7423539956176359e+02 | -7.2782784421520034e+01
5.6734529134233344e+02 | -7.3791613808594525e+02 | -1.7057084674361181e+02
5.8635801265041596e+02 | -7.9180463770638926e+02 | -2.0544662505597330e+02
3.8475473055452761e+02 | -4.5865097633714868e+02 | -7.3896245782621065e+01
3.2147208517727148e+02 | -3.8638830719016732e+02 | -6.4916222012895844e+01
2.8831263677272517e+02 | -3.5087004501886645e+02 | -6.2557408246141279e+01
2.6673347565836764e+02 | -3.2832552792531254e+02 | -6.1592052266944904e+01
2.5099709457931471e+02 | -3.1209401104023215e+02 | -6.1096916460917441e+01
2.3870800961384055e+02 | -2.9951354800429192e+02 | -6.0805538390451375e+01
2.2867111547626959e+02 | -2.8928860147512120e+02 | -6.0617485998851606e+01
2.2021477508625276e+02 | -2.8070262695208658e+02 | -6.0487851865833818e+01
2.1292781499466844e+02 | -2.7332181534864355e+02 | -6.0394000353975116e+01
2.0654175805980998e+02 | -2.6686521748551047e+02 | -6.0323459425700491e+01
2.0087228807514123e+02 | -2.6114115491646822e+02 | -6.0268866841326997e+01
1.9578771901234180e+02 | -2.5601335039378500e+02 | -6.0225631381443208e+01
1.9119088729047260e+02 | -2.5138164636646934e+02 | -6.0190759075996738e+01
1.8700819469336290e+02 | -2.4717041889915890e+02 | -6.0162224205796008e+01
1.8318268388301965e+02 | -2.4332129736497532e+02 | -6.0138613481955673e+01
1.7966949960384568e+02 | -2.3978841500562041e+02 | -6.0118915401774728e+01
1.7643282030556281e+02 | -2.3653521095104543e+02 | -6.0102390645482615e+01
1.7344372902154220e+02 | -2.3353221869105178e+02 | -6.0088489669509585e+01
1.7067870358950887e+02 | -2.3075550241575047e+02 | -6.0076798826241600e+01
1.6811852728960164e+02 | -2.2818553159899730e+02 | -6.0067004309395656e+01
1.6574749280913116e+02 | -2.2580636039566662e+02 | -6.0058867586535456e+01
1.6355281651927626e+02 | -2.2360502497792319e+02 | -6.0052208458646930e+01
1.6152420795332057e+02 | -2.2157110129740346e+02 | -6.0046893344082889e+01
1.5965355761654033e+02 | -2.1969638488737459e+02 | -6.0042827270834266e+01
1.5793471862042753e+02 | -2.1797466724143970e+02 | -6.0039948621012172e+01
1.5636336640576968e+02 | -2.1640159244796359e+02 | -6.0038226042193912e+01
1.5493692744926128e+02 | -2.1497458465253635e+02 | -6.0037657203275074e+01
1.5365457332187859e+02 | -2.1369284260121549e+02 | -6.0038269279336902e+01
1.5251728153319425e+02 | -2.1255740277118690e+02 | -6.0040121237992651e+01
1.5152796992494464e+02 | -2.1157127812607877e+02 | -6.0043308201134124e+01
1.5069171769774260e+02 | -2.1073968610468296e+02 | -6.0047968406940356e+01
1.5001609440515983e+02 | -2.1007038805143767e+02 | -6.0054293646277841e+01
1.4951162979304524e+02 | -2.0957417436415619e+02 | -6.0062544571110948e+01
1.4919247433683734e+02 | -2.0926554743447869e+02 | -6.0073073097641355e+01
1.4907732626016315e+02 | -2.0916368173862517e+02 | -6.0086355478462025e+01
1.4919074174306454e+02 | -2.0929378365223536e+02 | -6.0103041909170827e+01
1.4956501166586818e+02 | -2.0968904421990496e+02 | -6.0124032554036773e+01
1.5024290030521877e+02 | -2.1039349749412787e+02 | -6.0150597188909103e+01
1.5128173663260580e+02 | -2.1146630615438832e+02 | -6.0184569521782521e+01
1.5275970269079167e+02 | -2.1298837746363708e+02 | -6.0228674772845409e+01
1.5478583448940896e+02 | -2.1507294123387709e+02 | -6.0287106744468133e+01
1.5751659222865914e+02 | -2.1788319143854056e+02 | -6.0366599209881429e+01
1.6118471146482278e+02 | -2.2166325715969643e+02 | -6.0478545694873645e+01
1.6615259966173369e+02 | -2.2679613629349797e+02 | -6.0643536631764277e+01
1.7301905607343940e+02 | -2.3392114643447550e+02 | -6.0902090361036102e+01
1.8285495983351763e+02 | -2.4419856016088085e+02 | -6.1343600327363220e+01
1.9779926772745904e+02 | -2.5999930955445018e+02 | -6.2200041826991139e+01
2.2289190834896829e+02 | -2.8713679579664017e+02 | -6.4244887447671886e+01
2.7377729014462625e+02 | -3.4529949070386925e+02 | -7.1522200559243004e+01
4.3405853055761901e+02 | -5.8508462564419312e+02 | -1.5102609508657412e+02
4.9963862269539106e+02 | -7.4151972967012216e+02 | -2.4188110697473110e+02
2.8610402163160359e+02 | -3.6073049167948000e+02 | -7.4626470047876410e+01
2.2504568723488512e+02 | -2.8992546859003249e+02 | -6.4879781355147372e+01
1.9551320390237402e+02 | -2.5793885000392328e+02 | -6.2425646101549262e+01
1.7763803381044062e+02 | -2.3908522834059960e+02 | -6.1447194530158981e+01
1.6543701258127763e+02 | -2.2639347177525585e+02 | -6.0956459193978219e+01
1.5646309422110551e+02 | -2.1713697243304961e+02 | -6.0673878211944100e+01
1.4951927091841765e+02 | -2.1001472279238180e+02 | -6.0495451873964157e+01
1.4394660822182607e+02 | -2.0432176024790846e+02 | -6.0375152026082390e+01
1.3935060296465497e+02 | -1.9964059110020187e+02 | -6.0289988135546906e+01
1.3547977195502870e+02 | -1.9570717527061785e+02 | -6.0227403315589157e+01
1.3216582622453666e+02 | -1.9234587732306221e+02 | -6.0180051098525553e+01
1.2929172847277388e+02 | -1.8943512112875041e+02 | -6.0143392655976527e+01
1.2677352049853405e+02 | -1.8688801779627408e+02 | -6.0114497297740030e+01
1.2454943879230740e+02 | -1.8464084167948118e+02 | -6.0091402887173786e+01
1.2257311269702136e+02 | -1.8264586850438863e+02 | -6.0072755807367272e+01
1.2080916055169058e+02 | -1.8086675944367116e+02 | -6.0057598891980575e+01
1.1923025246766790e+02 | -1.7927549410226797e+02 | -6.0045241634600075e+01
1.1781510222918578e+02 | -1.7785028036336445e+02 | -6.0035178134178665e+01
1.1654706653646495e+02 | -1.7657410032203384e+02 | -6.0027033785568889e+01
1.1541315285392666e+02 | -1.7543368272162920e+02 | -6.0020529867702535e+01
1.1440330987744474e+02 | -1.7441876950554845e+02 | -6.0015459628103713e+01
1.1350991909221466e+02 | -1.7352159107487969e+02 | -6.0011671982665035e+01
1.1272743393998417e+02 | -1.7273649436926684e+02 | -6.0009060429282670e+01
1.1205213141139677e+02 | -1.7205968708542230e+02 | -6.0007555674025525e+01
1.1148195329739622e+02 | -1.7148907433617737e+02 | -6.0007121038781150e+01
1.1101642321680777e+02 | -1.7102417331759278e+02 | -6.0007750100785017e+01
